 |Bench| WARMUP          100  iterations [len =        65536 ]---
 |Bench| WARMUP Start:   1641508926
 |Bench| WARMUP Stop:   1641508934
 |Bench| BENCHMARK           10  iterations [len =      4194304 ]---
 |Bench| BENCHMARK Start:   1641508937
 case :            0
 M  :      4194304
 dx :    2.3841863594499491E-007
 dt :   0.10000000000000001     
 eps:    1.0000000000000001E-009
 k=           0 : RMS U =   4.5419264787232197E-002
 k=           1 : RMS U =   2.2806361316238311E-002
 k=           2 : RMS U =   1.1477003016861213E-002
 k=           3 : RMS U =   5.7761386632287004E-003
 k=           4 : RMS U =   2.9070211696674919E-003
 k=           5 : RMS U =   1.4630488857763474E-003
 k=           6 : RMS U =   7.3632489379214339E-004
 k=           7 : RMS U =   3.7057842332831011E-004
 k=           8 : RMS U =   1.8650512700793277E-004
 k=           9 : RMS U =   9.3864510746704581E-005
 k=          10 : RMS U =   4.7240236875311285E-005
 k=          11 : RMS U =   2.3775119717391259E-005
 k=          12 : RMS U =   1.1965569074251262E-005
 k=          13 : RMS U =   6.0220451089914426E-006
 k=          14 : RMS U =   3.0307816589013523E-006
 k=          15 : RMS U =   1.5253352114818865E-006
 k=          16 : RMS U =   7.6767242432253003E-007
 k=          17 : RMS U =   3.8635504330820511E-007
 k=          18 : RMS U =   1.9444520617153688E-007
 k=          19 : RMS U =   9.7860595097863201E-008
 k=          20 : RMS U =   4.9251391258264572E-008
 k=          21 : RMS U =   2.4787293891460715E-008
 k=          22 : RMS U =   1.2474983185689677E-008
 k=          23 : RMS U =   6.2784268220559195E-009
 k=          24 : RMS U =   3.1598094302718734E-009
 k=          25 : RMS U =   1.5902743872009890E-009
 The simulation has converged in           26  iterations
 |Bench| Time (s):    4.97058201    
 result samples:
 u[           1 ] =   -1.1920935848380488E-007
 u[      419431 ] =    4.4999868939941554E-002
 u[      838861 ] =    7.9999869471083035E-002
 u[     1258291 ] =   0.10499988018777770     
 u[     1677721 ] =   0.11999989784316860     
 u[     2097151 ] =   0.12499992344290904     
 u[     2516581 ] =   0.11999995926374021     
 u[     2936011 ] =   0.10500000458298418     
 u[     3355441 ] =    8.0000064501955084E-002
 u[     3774871 ] =    4.5000142599126706E-002
 u[     4194301 ] =    2.3841841247628583E-007
 case :            0
 M  :      4194304
 dx :    2.3841863594499491E-007
 dt :   0.10000000000000001     
 eps:    1.0000000000000001E-009
 k=           0 : RMS U =   4.5419264787232197E-002
 k=           1 : RMS U =   2.2806361316238311E-002
 k=           2 : RMS U =   1.1477003016861213E-002
 k=           3 : RMS U =   5.7761386632287004E-003
 k=           4 : RMS U =   2.9070211696674919E-003
 k=           5 : RMS U =   1.4630488857763474E-003
 k=           6 : RMS U =   7.3632489379214339E-004
 k=           7 : RMS U =   3.7057842332831011E-004
 k=           8 : RMS U =   1.8650512700793277E-004
 k=           9 : RMS U =   9.3864510746704581E-005
 k=          10 : RMS U =   4.7240236875311285E-005
 k=          11 : RMS U =   2.3775119717391259E-005
 k=          12 : RMS U =   1.1965569074251262E-005
 k=          13 : RMS U =   6.0220451089914426E-006
 k=          14 : RMS U =   3.0307816589013523E-006
 k=          15 : RMS U =   1.5253352114818865E-006
 k=          16 : RMS U =   7.6767242432253003E-007
 k=          17 : RMS U =   3.8635504330820511E-007
 k=          18 : RMS U =   1.9444520617153688E-007
 k=          19 : RMS U =   9.7860595097863201E-008
 k=          20 : RMS U =   4.9251391258264572E-008
 k=          21 : RMS U =   2.4787293891460715E-008
 k=          22 : RMS U =   1.2474983185689677E-008
 k=          23 : RMS U =   6.2784268220559195E-009
 k=          24 : RMS U =   3.1598094302718734E-009
 k=          25 : RMS U =   1.5902743872009890E-009
 The simulation has converged in           26  iterations
 |Bench| Time (s):    4.85094118    
 result samples:
 u[           1 ] =   -1.1920935848380488E-007
 u[      419431 ] =    4.4999868939941554E-002
 u[      838861 ] =    7.9999869471083035E-002
 u[     1258291 ] =   0.10499988018777770     
 u[     1677721 ] =   0.11999989784316860     
 u[     2097151 ] =   0.12499992344290904     
 u[     2516581 ] =   0.11999995926374021     
 u[     2936011 ] =   0.10500000458298418     
 u[     3355441 ] =    8.0000064501955084E-002
 u[     3774871 ] =    4.5000142599126706E-002
 u[     4194301 ] =    2.3841841247628583E-007
 case :            0
 M  :      4194304
 dx :    2.3841863594499491E-007
 dt :   0.10000000000000001     
 eps:    1.0000000000000001E-009
 k=           0 : RMS U =   4.5419264787232197E-002
 k=           1 : RMS U =   2.2806361316238311E-002
 k=           2 : RMS U =   1.1477003016861213E-002
 k=           3 : RMS U =   5.7761386632287004E-003
 k=           4 : RMS U =   2.9070211696674919E-003
 k=           5 : RMS U =   1.4630488857763474E-003
 k=           6 : RMS U =   7.3632489379214339E-004
 k=           7 : RMS U =   3.7057842332831011E-004
 k=           8 : RMS U =   1.8650512700793277E-004
 k=           9 : RMS U =   9.3864510746704581E-005
 k=          10 : RMS U =   4.7240236875311285E-005
 k=          11 : RMS U =   2.3775119717391259E-005
 k=          12 : RMS U =   1.1965569074251262E-005
 k=          13 : RMS U =   6.0220451089914426E-006
 k=          14 : RMS U =   3.0307816589013523E-006
 k=          15 : RMS U =   1.5253352114818865E-006
 k=          16 : RMS U =   7.6767242432253003E-007
 k=          17 : RMS U =   3.8635504330820511E-007
 k=          18 : RMS U =   1.9444520617153688E-007
 k=          19 : RMS U =   9.7860595097863201E-008
 k=          20 : RMS U =   4.9251391258264572E-008
 k=          21 : RMS U =   2.4787293891460715E-008
 k=          22 : RMS U =   1.2474983185689677E-008
 k=          23 : RMS U =   6.2784268220559195E-009
 k=          24 : RMS U =   3.1598094302718734E-009
 k=          25 : RMS U =   1.5902743872009890E-009
 The simulation has converged in           26  iterations
 |Bench| Time (s):    4.95853281    
 result samples:
 u[           1 ] =   -1.1920935848380488E-007
 u[      419431 ] =    4.4999868939941554E-002
 u[      838861 ] =    7.9999869471083035E-002
 u[     1258291 ] =   0.10499988018777770     
 u[     1677721 ] =   0.11999989784316860     
 u[     2097151 ] =   0.12499992344290904     
 u[     2516581 ] =   0.11999995926374021     
 u[     2936011 ] =   0.10500000458298418     
 u[     3355441 ] =    8.0000064501955084E-002
 u[     3774871 ] =    4.5000142599126706E-002
 u[     4194301 ] =    2.3841841247628583E-007
 case :            0
 M  :      4194304
 dx :    2.3841863594499491E-007
 dt :   0.10000000000000001     
 eps:    1.0000000000000001E-009
 k=           0 : RMS U =   4.5419264787232197E-002
 k=           1 : RMS U =   2.2806361316238311E-002
 k=           2 : RMS U =   1.1477003016861213E-002
 k=           3 : RMS U =   5.7761386632287004E-003
 k=           4 : RMS U =   2.9070211696674919E-003
 k=           5 : RMS U =   1.4630488857763474E-003
 k=           6 : RMS U =   7.3632489379214339E-004
 k=           7 : RMS U =   3.7057842332831011E-004
 k=           8 : RMS U =   1.8650512700793277E-004
 k=           9 : RMS U =   9.3864510746704581E-005
 k=          10 : RMS U =   4.7240236875311285E-005
 k=          11 : RMS U =   2.3775119717391259E-005
 k=          12 : RMS U =   1.1965569074251262E-005
 k=          13 : RMS U =   6.0220451089914426E-006
 k=          14 : RMS U =   3.0307816589013523E-006
 k=          15 : RMS U =   1.5253352114818865E-006
 k=          16 : RMS U =   7.6767242432253003E-007
 k=          17 : RMS U =   3.8635504330820511E-007
 k=          18 : RMS U =   1.9444520617153688E-007
 k=          19 : RMS U =   9.7860595097863201E-008
 k=          20 : RMS U =   4.9251391258264572E-008
 k=          21 : RMS U =   2.4787293891460715E-008
 k=          22 : RMS U =   1.2474983185689677E-008
 k=          23 : RMS U =   6.2784268220559195E-009
 k=          24 : RMS U =   3.1598094302718734E-009
 k=          25 : RMS U =   1.5902743872009890E-009
 The simulation has converged in           26  iterations
 |Bench| Time (s):    4.87018204    
 result samples:
 u[           1 ] =   -1.1920935848380488E-007
 u[      419431 ] =    4.4999868939941554E-002
 u[      838861 ] =    7.9999869471083035E-002
 u[     1258291 ] =   0.10499988018777770     
 u[     1677721 ] =   0.11999989784316860     
 u[     2097151 ] =   0.12499992344290904     
 u[     2516581 ] =   0.11999995926374021     
 u[     2936011 ] =   0.10500000458298418     
 u[     3355441 ] =    8.0000064501955084E-002
 u[     3774871 ] =    4.5000142599126706E-002
 u[     4194301 ] =    2.3841841247628583E-007
 case :            0
 M  :      4194304
 dx :    2.3841863594499491E-007
 dt :   0.10000000000000001     
 eps:    1.0000000000000001E-009
 k=           0 : RMS U =   4.5419264787232197E-002
 k=           1 : RMS U =   2.2806361316238311E-002
 k=           2 : RMS U =   1.1477003016861213E-002
 k=           3 : RMS U =   5.7761386632287004E-003
 k=           4 : RMS U =   2.9070211696674919E-003
 k=           5 : RMS U =   1.4630488857763474E-003
 k=           6 : RMS U =   7.3632489379214339E-004
 k=           7 : RMS U =   3.7057842332831011E-004
 k=           8 : RMS U =   1.8650512700793277E-004
 k=           9 : RMS U =   9.3864510746704581E-005
 k=          10 : RMS U =   4.7240236875311285E-005
 k=          11 : RMS U =   2.3775119717391259E-005
 k=          12 : RMS U =   1.1965569074251262E-005
 k=          13 : RMS U =   6.0220451089914426E-006
 k=          14 : RMS U =   3.0307816589013523E-006
 k=          15 : RMS U =   1.5253352114818865E-006
 k=          16 : RMS U =   7.6767242432253003E-007
 k=          17 : RMS U =   3.8635504330820511E-007
 k=          18 : RMS U =   1.9444520617153688E-007
 k=          19 : RMS U =   9.7860595097863201E-008
 k=          20 : RMS U =   4.9251391258264572E-008
 k=          21 : RMS U =   2.4787293891460715E-008
 k=          22 : RMS U =   1.2474983185689677E-008
 k=          23 : RMS U =   6.2784268220559195E-009
 k=          24 : RMS U =   3.1598094302718734E-009
 k=          25 : RMS U =   1.5902743872009890E-009
 The simulation has converged in           26  iterations
 |Bench| Time (s):    4.91408873    
 result samples:
 u[           1 ] =   -1.1920935848380488E-007
 u[      419431 ] =    4.4999868939941554E-002
 u[      838861 ] =    7.9999869471083035E-002
 u[     1258291 ] =   0.10499988018777770     
 u[     1677721 ] =   0.11999989784316860     
 u[     2097151 ] =   0.12499992344290904     
 u[     2516581 ] =   0.11999995926374021     
 u[     2936011 ] =   0.10500000458298418     
 u[     3355441 ] =    8.0000064501955084E-002
 u[     3774871 ] =    4.5000142599126706E-002
 u[     4194301 ] =    2.3841841247628583E-007
 case :            0
 M  :      4194304
 dx :    2.3841863594499491E-007
 dt :   0.10000000000000001     
 eps:    1.0000000000000001E-009
 k=           0 : RMS U =   4.5419264787232197E-002
 k=           1 : RMS U =   2.2806361316238311E-002
 k=           2 : RMS U =   1.1477003016861213E-002
 k=           3 : RMS U =   5.7761386632287004E-003
 k=           4 : RMS U =   2.9070211696674919E-003
 k=           5 : RMS U =   1.4630488857763474E-003
 k=           6 : RMS U =   7.3632489379214339E-004
 k=           7 : RMS U =   3.7057842332831011E-004
 k=           8 : RMS U =   1.8650512700793277E-004
 k=           9 : RMS U =   9.3864510746704581E-005
 k=          10 : RMS U =   4.7240236875311285E-005
 k=          11 : RMS U =   2.3775119717391259E-005
 k=          12 : RMS U =   1.1965569074251262E-005
 k=          13 : RMS U =   6.0220451089914426E-006
 k=          14 : RMS U =   3.0307816589013523E-006
 k=          15 : RMS U =   1.5253352114818865E-006
 k=          16 : RMS U =   7.6767242432253003E-007
 k=          17 : RMS U =   3.8635504330820511E-007
 k=          18 : RMS U =   1.9444520617153688E-007
 k=          19 : RMS U =   9.7860595097863201E-008
 k=          20 : RMS U =   4.9251391258264572E-008
 k=          21 : RMS U =   2.4787293891460715E-008
 k=          22 : RMS U =   1.2474983185689677E-008
 k=          23 : RMS U =   6.2784268220559195E-009
 k=          24 : RMS U =   3.1598094302718734E-009
 k=          25 : RMS U =   1.5902743872009890E-009
 The simulation has converged in           26  iterations
 |Bench| Time (s):    4.93679523    
 result samples:
 u[           1 ] =   -1.1920935848380488E-007
 u[      419431 ] =    4.4999868939941554E-002
 u[      838861 ] =    7.9999869471083035E-002
 u[     1258291 ] =   0.10499988018777770     
 u[     1677721 ] =   0.11999989784316860     
 u[     2097151 ] =   0.12499992344290904     
 u[     2516581 ] =   0.11999995926374021     
 u[     2936011 ] =   0.10500000458298418     
 u[     3355441 ] =    8.0000064501955084E-002
 u[     3774871 ] =    4.5000142599126706E-002
 u[     4194301 ] =    2.3841841247628583E-007
 case :            0
 M  :      4194304
 dx :    2.3841863594499491E-007
 dt :   0.10000000000000001     
 eps:    1.0000000000000001E-009
 k=           0 : RMS U =   4.5419264787232197E-002
 k=           1 : RMS U =   2.2806361316238311E-002
 k=           2 : RMS U =   1.1477003016861213E-002
 k=           3 : RMS U =   5.7761386632287004E-003
 k=           4 : RMS U =   2.9070211696674919E-003
 k=           5 : RMS U =   1.4630488857763474E-003
 k=           6 : RMS U =   7.3632489379214339E-004
 k=           7 : RMS U =   3.7057842332831011E-004
 k=           8 : RMS U =   1.8650512700793277E-004
 k=           9 : RMS U =   9.3864510746704581E-005
 k=          10 : RMS U =   4.7240236875311285E-005
 k=          11 : RMS U =   2.3775119717391259E-005
 k=          12 : RMS U =   1.1965569074251262E-005
 k=          13 : RMS U =   6.0220451089914426E-006
 k=          14 : RMS U =   3.0307816589013523E-006
 k=          15 : RMS U =   1.5253352114818865E-006
 k=          16 : RMS U =   7.6767242432253003E-007
 k=          17 : RMS U =   3.8635504330820511E-007
 k=          18 : RMS U =   1.9444520617153688E-007
 k=          19 : RMS U =   9.7860595097863201E-008
 k=          20 : RMS U =   4.9251391258264572E-008
 k=          21 : RMS U =   2.4787293891460715E-008
 k=          22 : RMS U =   1.2474983185689677E-008
 k=          23 : RMS U =   6.2784268220559195E-009
 k=          24 : RMS U =   3.1598094302718734E-009
 k=          25 : RMS U =   1.5902743872009890E-009
 The simulation has converged in           26  iterations
 |Bench| Time (s):    4.88781786    
 result samples:
 u[           1 ] =   -1.1920935848380488E-007
 u[      419431 ] =    4.4999868939941554E-002
 u[      838861 ] =    7.9999869471083035E-002
 u[     1258291 ] =   0.10499988018777770     
 u[     1677721 ] =   0.11999989784316860     
 u[     2097151 ] =   0.12499992344290904     
 u[     2516581 ] =   0.11999995926374021     
 u[     2936011 ] =   0.10500000458298418     
 u[     3355441 ] =    8.0000064501955084E-002
 u[     3774871 ] =    4.5000142599126706E-002
 u[     4194301 ] =    2.3841841247628583E-007
 case :            0
 M  :      4194304
 dx :    2.3841863594499491E-007
 dt :   0.10000000000000001     
 eps:    1.0000000000000001E-009
 k=           0 : RMS U =   4.5419264787232197E-002
 k=           1 : RMS U =   2.2806361316238311E-002
 k=           2 : RMS U =   1.1477003016861213E-002
 k=           3 : RMS U =   5.7761386632287004E-003
 k=           4 : RMS U =   2.9070211696674919E-003
 k=           5 : RMS U =   1.4630488857763474E-003
 k=           6 : RMS U =   7.3632489379214339E-004
 k=           7 : RMS U =   3.7057842332831011E-004
 k=           8 : RMS U =   1.8650512700793277E-004
 k=           9 : RMS U =   9.3864510746704581E-005
 k=          10 : RMS U =   4.7240236875311285E-005
 k=          11 : RMS U =   2.3775119717391259E-005
 k=          12 : RMS U =   1.1965569074251262E-005
 k=          13 : RMS U =   6.0220451089914426E-006
 k=          14 : RMS U =   3.0307816589013523E-006
 k=          15 : RMS U =   1.5253352114818865E-006
 k=          16 : RMS U =   7.6767242432253003E-007
 k=          17 : RMS U =   3.8635504330820511E-007
 k=          18 : RMS U =   1.9444520617153688E-007
 k=          19 : RMS U =   9.7860595097863201E-008
 k=          20 : RMS U =   4.9251391258264572E-008
 k=          21 : RMS U =   2.4787293891460715E-008
 k=          22 : RMS U =   1.2474983185689677E-008
 k=          23 : RMS U =   6.2784268220559195E-009
 k=          24 : RMS U =   3.1598094302718734E-009
 k=          25 : RMS U =   1.5902743872009890E-009
 The simulation has converged in           26  iterations
 |Bench| Time (s):    4.89578533    
 result samples:
 u[           1 ] =   -1.1920935848380488E-007
 u[      419431 ] =    4.4999868939941554E-002
 u[      838861 ] =    7.9999869471083035E-002
 u[     1258291 ] =   0.10499988018777770     
 u[     1677721 ] =   0.11999989784316860     
 u[     2097151 ] =   0.12499992344290904     
 u[     2516581 ] =   0.11999995926374021     
 u[     2936011 ] =   0.10500000458298418     
 u[     3355441 ] =    8.0000064501955084E-002
 u[     3774871 ] =    4.5000142599126706E-002
 u[     4194301 ] =    2.3841841247628583E-007
 case :            0
 M  :      4194304
 dx :    2.3841863594499491E-007
 dt :   0.10000000000000001     
 eps:    1.0000000000000001E-009
 k=           0 : RMS U =   4.5419264787232197E-002
 k=           1 : RMS U =   2.2806361316238311E-002
 k=           2 : RMS U =   1.1477003016861213E-002
 k=           3 : RMS U =   5.7761386632287004E-003
 k=           4 : RMS U =   2.9070211696674919E-003
 k=           5 : RMS U =   1.4630488857763474E-003
 k=           6 : RMS U =   7.3632489379214339E-004
 k=           7 : RMS U =   3.7057842332831011E-004
 k=           8 : RMS U =   1.8650512700793277E-004
 k=           9 : RMS U =   9.3864510746704581E-005
 k=          10 : RMS U =   4.7240236875311285E-005
 k=          11 : RMS U =   2.3775119717391259E-005
 k=          12 : RMS U =   1.1965569074251262E-005
 k=          13 : RMS U =   6.0220451089914426E-006
 k=          14 : RMS U =   3.0307816589013523E-006
 k=          15 : RMS U =   1.5253352114818865E-006
 k=          16 : RMS U =   7.6767242432253003E-007
 k=          17 : RMS U =   3.8635504330820511E-007
 k=          18 : RMS U =   1.9444520617153688E-007
 k=          19 : RMS U =   9.7860595097863201E-008
 k=          20 : RMS U =   4.9251391258264572E-008
 k=          21 : RMS U =   2.4787293891460715E-008
 k=          22 : RMS U =   1.2474983185689677E-008
 k=          23 : RMS U =   6.2784268220559195E-009
 k=          24 : RMS U =   3.1598094302718734E-009
 k=          25 : RMS U =   1.5902743872009890E-009
 The simulation has converged in           26  iterations
 |Bench| Time (s):    4.91598082    
 result samples:
 u[           1 ] =   -1.1920935848380488E-007
 u[      419431 ] =    4.4999868939941554E-002
 u[      838861 ] =    7.9999869471083035E-002
 u[     1258291 ] =   0.10499988018777770     
 u[     1677721 ] =   0.11999989784316860     
 u[     2097151 ] =   0.12499992344290904     
 u[     2516581 ] =   0.11999995926374021     
 u[     2936011 ] =   0.10500000458298418     
 u[     3355441 ] =    8.0000064501955084E-002
 u[     3774871 ] =    4.5000142599126706E-002
 u[     4194301 ] =    2.3841841247628583E-007
 case :            0
 M  :      4194304
 dx :    2.3841863594499491E-007
 dt :   0.10000000000000001     
 eps:    1.0000000000000001E-009
 k=           0 : RMS U =   4.5419264787232197E-002
 k=           1 : RMS U =   2.2806361316238311E-002
 k=           2 : RMS U =   1.1477003016861213E-002
 k=           3 : RMS U =   5.7761386632287004E-003
 k=           4 : RMS U =   2.9070211696674919E-003
 k=           5 : RMS U =   1.4630488857763474E-003
 k=           6 : RMS U =   7.3632489379214339E-004
 k=           7 : RMS U =   3.7057842332831011E-004
 k=           8 : RMS U =   1.8650512700793277E-004
 k=           9 : RMS U =   9.3864510746704581E-005
 k=          10 : RMS U =   4.7240236875311285E-005
 k=          11 : RMS U =   2.3775119717391259E-005
 k=          12 : RMS U =   1.1965569074251262E-005
 k=          13 : RMS U =   6.0220451089914426E-006
 k=          14 : RMS U =   3.0307816589013523E-006
 k=          15 : RMS U =   1.5253352114818865E-006
 k=          16 : RMS U =   7.6767242432253003E-007
 k=          17 : RMS U =   3.8635504330820511E-007
 k=          18 : RMS U =   1.9444520617153688E-007
 k=          19 : RMS U =   9.7860595097863201E-008
 k=          20 : RMS U =   4.9251391258264572E-008
 k=          21 : RMS U =   2.4787293891460715E-008
 k=          22 : RMS U =   1.2474983185689677E-008
 k=          23 : RMS U =   6.2784268220559195E-009
 k=          24 : RMS U =   3.1598094302718734E-009
 k=          25 : RMS U =   1.5902743872009890E-009
 The simulation has converged in           26  iterations
 |Bench| Time (s):    4.88709784    
 result samples:
 u[           1 ] =   -1.1920935848380488E-007
 u[      419431 ] =    4.4999868939941554E-002
 u[      838861 ] =    7.9999869471083035E-002
 u[     1258291 ] =   0.10499988018777770     
 u[     1677721 ] =   0.11999989784316860     
 u[     2097151 ] =   0.12499992344290904     
 u[     2516581 ] =   0.11999995926374021     
 u[     2936011 ] =   0.10500000458298418     
 u[     3355441 ] =    8.0000064501955084E-002
 u[     3774871 ] =    4.5000142599126706E-002
 u[     4194301 ] =    2.3841841247628583E-007
 |Bench| BENCHMARK Stop:   1641508986
