Python 3.9.2
Running main1D_cb_numba_opt.py
/tmp/ecoinfo_anf_new/ecoconception_logicielle/pyfiles/main1D_cb_numba_opt.py:130: DeprecationWarning: `np.float` is a deprecated alias for the builtin `float`. To silence this warning, use `float` by itself. Doing this will not modify any behavior and is safe. If you specifically wanted the numpy scalar type, use `np.float64` here.
Deprecated in NumPy 1.20; for more details and guidance: https://numpy.org/devdocs/release/1.20.0-notes.html#deprecations
  Aua = np.zeros([M - 1], dtype=np.float)
/tmp/ecoinfo_anf_new/ecoconception_logicielle/pyfiles/main1D_cb_numba_opt.py:131: DeprecationWarning: `np.float` is a deprecated alias for the builtin `float`. To silence this warning, use `float` by itself. Doing this will not modify any behavior and is safe. If you specifically wanted the numpy scalar type, use `np.float64` here.
Deprecated in NumPy 1.20; for more details and guidance: https://numpy.org/devdocs/release/1.20.0-notes.html#deprecations
  Aub = np.zeros([M], dtype=np.float)
/tmp/ecoinfo_anf_new/ecoconception_logicielle/pyfiles/main1D_cb_numba_opt.py:132: DeprecationWarning: `np.float` is a deprecated alias for the builtin `float`. To silence this warning, use `float` by itself. Doing this will not modify any behavior and is safe. If you specifically wanted the numpy scalar type, use `np.float64` here.
Deprecated in NumPy 1.20; for more details and guidance: https://numpy.org/devdocs/release/1.20.0-notes.html#deprecations
  Auc = np.zeros([M - 1], dtype=np.float)
/tmp/ecoinfo_anf_new/ecoconception_logicielle/pyfiles/main1D_cb_numba_opt.py:133: DeprecationWarning: `np.float` is a deprecated alias for the builtin `float`. To silence this warning, use `float` by itself. Doing this will not modify any behavior and is safe. If you specifically wanted the numpy scalar type, use `np.float64` here.
Deprecated in NumPy 1.20; for more details and guidance: https://numpy.org/devdocs/release/1.20.0-notes.html#deprecations
  Aud = np.zeros([M], dtype=np.float)
/tmp/ecoinfo_anf_new/ecoconception_logicielle/pyfiles/main1D_cb_numba_opt.py:135: DeprecationWarning: `np.float` is a deprecated alias for the builtin `float`. To silence this warning, use `float` by itself. Doing this will not modify any behavior and is safe. If you specifically wanted the numpy scalar type, use `np.float64` here.
Deprecated in NumPy 1.20; for more details and guidance: https://numpy.org/devdocs/release/1.20.0-notes.html#deprecations
  uold = np.zeros([M], dtype=np.float)
/tmp/ecoinfo_anf_new/ecoconception_logicielle/pyfiles/main1D_cb_numba_opt.py:136: DeprecationWarning: `np.float` is a deprecated alias for the builtin `float`. To silence this warning, use `float` by itself. Doing this will not modify any behavior and is safe. If you specifically wanted the numpy scalar type, use `np.float64` here.
Deprecated in NumPy 1.20; for more details and guidance: https://numpy.org/devdocs/release/1.20.0-notes.html#deprecations
  u    = np.zeros([M], dtype=np.float)
/tmp/ecoinfo_anf_new/ecoconception_logicielle/pyfiles/main1D_cb_numba_opt.py:137: DeprecationWarning: `np.float` is a deprecated alias for the builtin `float`. To silence this warning, use `float` by itself. Doing this will not modify any behavior and is safe. If you specifically wanted the numpy scalar type, use `np.float64` here.
Deprecated in NumPy 1.20; for more details and guidance: https://numpy.org/devdocs/release/1.20.0-notes.html#deprecations
  tmp  = np.zeros([M], dtype=np.float)
|Bench| WARMUP  100  iterations [len =  65536 ]---
|Bench| WARMUP Start:  1641756795
|Bench| WARMUP Stop:  1641756801
|Bench| BENCHMARK  10  iterations [ 4194304 ]---
|Bench| BENCHMARK Start:  1641756804
case :  diffusion
M  :  4194304
dx :  2.384186359449949e-07
dt :  0.1
eps:  1e-09
k= 0 : RMS U = 0.04541927413192011
k= 1 : RMS U = 0.022806370010027978
k= 2 : RMS U = 0.01147700939421402
k= 3 : RMS U = 0.005776142880309376
k= 4 : RMS U = 0.002907023799079953
k= 5 : RMS U = 0.0014630504643037324
k= 6 : RMS U = 0.0007363258166587219
k= 7 : RMS U = 0.00037057895241739483
k= 8 : RMS U = 0.0001865054258318681
k= 9 : RMS U = 9.386467751701669e-05
k= 10 : RMS U = 4.724032904260689e-05
k= 11 : RMS U = 2.377517024015295e-05
k= 12 : RMS U = 1.1965596603487778e-05
k= 13 : RMS U = 6.022059996790986e-06
k= 14 : RMS U = 3.0307896925692677e-06
k= 15 : RMS U = 1.52533951084201e-06
k= 16 : RMS U = 7.676747338788945e-07
k= 17 : RMS U = 3.8635626374947923e-07
k= 18 : RMS U = 1.9444585432654678e-07
k= 19 : RMS U = 9.786094249936604e-08
k= 20 : RMS U = 4.9251574949580625e-08
k= 21 : RMS U = 2.4787401652849136e-08
k= 22 : RMS U = 1.2475028201777867e-08
k= 23 : RMS U = 6.278447159440999e-09
k= 24 : RMS U = 3.1598218036194538e-09
k= 25 : RMS U = 1.5902840669815077e-09
The simulation has converged in  26  iterations
|Bench| Time (s):  5.649195671081543
result samples:
u[ 0 ] =  -1.1920951671438927e-07
u[ 419430 ] =  0.04499992482473523
u[ 838860 ] =  0.07999993543679544
u[ 1258290 ] =  0.10499994630079647
u[ 1677720 ] =  0.11999995391834647
u[ 2097150 ] =  0.12499996426193023
u[ 2516580 ] =  0.11999998521222201
u[ 2936010 ] =  0.10500001951243966
u[ 3355440 ] =  0.08000007235141963
u[ 3774870 ] =  0.045000144025146564
u[ 4194300 ] =  2.3841839751250414e-07
case :  diffusion
M  :  4194304
dx :  2.384186359449949e-07
dt :  0.1
eps:  1e-09
k= 0 : RMS U = 0.04541927413192011
k= 1 : RMS U = 0.022806370010027978
k= 2 : RMS U = 0.01147700939421402
k= 3 : RMS U = 0.005776142880309376
k= 4 : RMS U = 0.002907023799079953
k= 5 : RMS U = 0.0014630504643037324
k= 6 : RMS U = 0.0007363258166587219
k= 7 : RMS U = 0.00037057895241739483
k= 8 : RMS U = 0.0001865054258318681
k= 9 : RMS U = 9.386467751701669e-05
k= 10 : RMS U = 4.724032904260689e-05
k= 11 : RMS U = 2.377517024015295e-05
k= 12 : RMS U = 1.1965596603487778e-05
k= 13 : RMS U = 6.022059996790986e-06
k= 14 : RMS U = 3.0307896925692677e-06
k= 15 : RMS U = 1.52533951084201e-06
k= 16 : RMS U = 7.676747338788945e-07
k= 17 : RMS U = 3.8635626374947923e-07
k= 18 : RMS U = 1.9444585432654678e-07
k= 19 : RMS U = 9.786094249936604e-08
k= 20 : RMS U = 4.9251574949580625e-08
k= 21 : RMS U = 2.4787401652849136e-08
k= 22 : RMS U = 1.2475028201777867e-08
k= 23 : RMS U = 6.278447159440999e-09
k= 24 : RMS U = 3.1598218036194538e-09
k= 25 : RMS U = 1.5902840669815077e-09
The simulation has converged in  26  iterations
|Bench| Time (s):  5.686360597610474
result samples:
u[ 0 ] =  -1.1920951671438927e-07
u[ 419430 ] =  0.04499992482473523
u[ 838860 ] =  0.07999993543679544
u[ 1258290 ] =  0.10499994630079647
u[ 1677720 ] =  0.11999995391834647
u[ 2097150 ] =  0.12499996426193023
u[ 2516580 ] =  0.11999998521222201
u[ 2936010 ] =  0.10500001951243966
u[ 3355440 ] =  0.08000007235141963
u[ 3774870 ] =  0.045000144025146564
u[ 4194300 ] =  2.3841839751250414e-07
case :  diffusion
M  :  4194304
dx :  2.384186359449949e-07
dt :  0.1
eps:  1e-09
k= 0 : RMS U = 0.04541927413192011
k= 1 : RMS U = 0.022806370010027978
k= 2 : RMS U = 0.01147700939421402
k= 3 : RMS U = 0.005776142880309376
k= 4 : RMS U = 0.002907023799079953
k= 5 : RMS U = 0.0014630504643037324
k= 6 : RMS U = 0.0007363258166587219
k= 7 : RMS U = 0.00037057895241739483
k= 8 : RMS U = 0.0001865054258318681
k= 9 : RMS U = 9.386467751701669e-05
k= 10 : RMS U = 4.724032904260689e-05
k= 11 : RMS U = 2.377517024015295e-05
k= 12 : RMS U = 1.1965596603487778e-05
k= 13 : RMS U = 6.022059996790986e-06
k= 14 : RMS U = 3.0307896925692677e-06
k= 15 : RMS U = 1.52533951084201e-06
k= 16 : RMS U = 7.676747338788945e-07
k= 17 : RMS U = 3.8635626374947923e-07
k= 18 : RMS U = 1.9444585432654678e-07
k= 19 : RMS U = 9.786094249936604e-08
k= 20 : RMS U = 4.9251574949580625e-08
k= 21 : RMS U = 2.4787401652849136e-08
k= 22 : RMS U = 1.2475028201777867e-08
k= 23 : RMS U = 6.278447159440999e-09
k= 24 : RMS U = 3.1598218036194538e-09
k= 25 : RMS U = 1.5902840669815077e-09
The simulation has converged in  26  iterations
|Bench| Time (s):  5.670429706573486
result samples:
u[ 0 ] =  -1.1920951671438927e-07
u[ 419430 ] =  0.04499992482473523
u[ 838860 ] =  0.07999993543679544
u[ 1258290 ] =  0.10499994630079647
u[ 1677720 ] =  0.11999995391834647
u[ 2097150 ] =  0.12499996426193023
u[ 2516580 ] =  0.11999998521222201
u[ 2936010 ] =  0.10500001951243966
u[ 3355440 ] =  0.08000007235141963
u[ 3774870 ] =  0.045000144025146564
u[ 4194300 ] =  2.3841839751250414e-07
case :  diffusion
M  :  4194304
dx :  2.384186359449949e-07
dt :  0.1
eps:  1e-09
k= 0 : RMS U = 0.04541927413192011
k= 1 : RMS U = 0.022806370010027978
k= 2 : RMS U = 0.01147700939421402
k= 3 : RMS U = 0.005776142880309376
k= 4 : RMS U = 0.002907023799079953
k= 5 : RMS U = 0.0014630504643037324
k= 6 : RMS U = 0.0007363258166587219
k= 7 : RMS U = 0.00037057895241739483
k= 8 : RMS U = 0.0001865054258318681
k= 9 : RMS U = 9.386467751701669e-05
k= 10 : RMS U = 4.724032904260689e-05
k= 11 : RMS U = 2.377517024015295e-05
k= 12 : RMS U = 1.1965596603487778e-05
k= 13 : RMS U = 6.022059996790986e-06
k= 14 : RMS U = 3.0307896925692677e-06
k= 15 : RMS U = 1.52533951084201e-06
k= 16 : RMS U = 7.676747338788945e-07
k= 17 : RMS U = 3.8635626374947923e-07
k= 18 : RMS U = 1.9444585432654678e-07
k= 19 : RMS U = 9.786094249936604e-08
k= 20 : RMS U = 4.9251574949580625e-08
k= 21 : RMS U = 2.4787401652849136e-08
k= 22 : RMS U = 1.2475028201777867e-08
k= 23 : RMS U = 6.278447159440999e-09
k= 24 : RMS U = 3.1598218036194538e-09
k= 25 : RMS U = 1.5902840669815077e-09
The simulation has converged in  26  iterations
|Bench| Time (s):  5.65926456451416
result samples:
u[ 0 ] =  -1.1920951671438927e-07
u[ 419430 ] =  0.04499992482473523
u[ 838860 ] =  0.07999993543679544
u[ 1258290 ] =  0.10499994630079647
u[ 1677720 ] =  0.11999995391834647
u[ 2097150 ] =  0.12499996426193023
u[ 2516580 ] =  0.11999998521222201
u[ 2936010 ] =  0.10500001951243966
u[ 3355440 ] =  0.08000007235141963
u[ 3774870 ] =  0.045000144025146564
u[ 4194300 ] =  2.3841839751250414e-07
case :  diffusion
M  :  4194304
dx :  2.384186359449949e-07
dt :  0.1
eps:  1e-09
k= 0 : RMS U = 0.04541927413192011
k= 1 : RMS U = 0.022806370010027978
k= 2 : RMS U = 0.01147700939421402
k= 3 : RMS U = 0.005776142880309376
k= 4 : RMS U = 0.002907023799079953
k= 5 : RMS U = 0.0014630504643037324
k= 6 : RMS U = 0.0007363258166587219
k= 7 : RMS U = 0.00037057895241739483
k= 8 : RMS U = 0.0001865054258318681
k= 9 : RMS U = 9.386467751701669e-05
k= 10 : RMS U = 4.724032904260689e-05
k= 11 : RMS U = 2.377517024015295e-05
k= 12 : RMS U = 1.1965596603487778e-05
k= 13 : RMS U = 6.022059996790986e-06
k= 14 : RMS U = 3.0307896925692677e-06
k= 15 : RMS U = 1.52533951084201e-06
k= 16 : RMS U = 7.676747338788945e-07
k= 17 : RMS U = 3.8635626374947923e-07
k= 18 : RMS U = 1.9444585432654678e-07
k= 19 : RMS U = 9.786094249936604e-08
k= 20 : RMS U = 4.9251574949580625e-08
k= 21 : RMS U = 2.4787401652849136e-08
k= 22 : RMS U = 1.2475028201777867e-08
k= 23 : RMS U = 6.278447159440999e-09
k= 24 : RMS U = 3.1598218036194538e-09
k= 25 : RMS U = 1.5902840669815077e-09
The simulation has converged in  26  iterations
|Bench| Time (s):  5.70529317855835
result samples:
u[ 0 ] =  -1.1920951671438927e-07
u[ 419430 ] =  0.04499992482473523
u[ 838860 ] =  0.07999993543679544
u[ 1258290 ] =  0.10499994630079647
u[ 1677720 ] =  0.11999995391834647
u[ 2097150 ] =  0.12499996426193023
u[ 2516580 ] =  0.11999998521222201
u[ 2936010 ] =  0.10500001951243966
u[ 3355440 ] =  0.08000007235141963
u[ 3774870 ] =  0.045000144025146564
u[ 4194300 ] =  2.3841839751250414e-07
case :  diffusion
M  :  4194304
dx :  2.384186359449949e-07
dt :  0.1
eps:  1e-09
k= 0 : RMS U = 0.04541927413192011
k= 1 : RMS U = 0.022806370010027978
k= 2 : RMS U = 0.01147700939421402
k= 3 : RMS U = 0.005776142880309376
k= 4 : RMS U = 0.002907023799079953
k= 5 : RMS U = 0.0014630504643037324
k= 6 : RMS U = 0.0007363258166587219
k= 7 : RMS U = 0.00037057895241739483
k= 8 : RMS U = 0.0001865054258318681
k= 9 : RMS U = 9.386467751701669e-05
k= 10 : RMS U = 4.724032904260689e-05
k= 11 : RMS U = 2.377517024015295e-05
k= 12 : RMS U = 1.1965596603487778e-05
k= 13 : RMS U = 6.022059996790986e-06
k= 14 : RMS U = 3.0307896925692677e-06
k= 15 : RMS U = 1.52533951084201e-06
k= 16 : RMS U = 7.676747338788945e-07
k= 17 : RMS U = 3.8635626374947923e-07
k= 18 : RMS U = 1.9444585432654678e-07
k= 19 : RMS U = 9.786094249936604e-08
k= 20 : RMS U = 4.9251574949580625e-08
k= 21 : RMS U = 2.4787401652849136e-08
k= 22 : RMS U = 1.2475028201777867e-08
k= 23 : RMS U = 6.278447159440999e-09
k= 24 : RMS U = 3.1598218036194538e-09
k= 25 : RMS U = 1.5902840669815077e-09
The simulation has converged in  26  iterations
|Bench| Time (s):  5.681179046630859
result samples:
u[ 0 ] =  -1.1920951671438927e-07
u[ 419430 ] =  0.04499992482473523
u[ 838860 ] =  0.07999993543679544
u[ 1258290 ] =  0.10499994630079647
u[ 1677720 ] =  0.11999995391834647
u[ 2097150 ] =  0.12499996426193023
u[ 2516580 ] =  0.11999998521222201
u[ 2936010 ] =  0.10500001951243966
u[ 3355440 ] =  0.08000007235141963
u[ 3774870 ] =  0.045000144025146564
u[ 4194300 ] =  2.3841839751250414e-07
case :  diffusion
M  :  4194304
dx :  2.384186359449949e-07
dt :  0.1
eps:  1e-09
k= 0 : RMS U = 0.04541927413192011
k= 1 : RMS U = 0.022806370010027978
k= 2 : RMS U = 0.01147700939421402
k= 3 : RMS U = 0.005776142880309376
k= 4 : RMS U = 0.002907023799079953
k= 5 : RMS U = 0.0014630504643037324
k= 6 : RMS U = 0.0007363258166587219
k= 7 : RMS U = 0.00037057895241739483
k= 8 : RMS U = 0.0001865054258318681
k= 9 : RMS U = 9.386467751701669e-05
k= 10 : RMS U = 4.724032904260689e-05
k= 11 : RMS U = 2.377517024015295e-05
k= 12 : RMS U = 1.1965596603487778e-05
k= 13 : RMS U = 6.022059996790986e-06
k= 14 : RMS U = 3.0307896925692677e-06
k= 15 : RMS U = 1.52533951084201e-06
k= 16 : RMS U = 7.676747338788945e-07
k= 17 : RMS U = 3.8635626374947923e-07
k= 18 : RMS U = 1.9444585432654678e-07
k= 19 : RMS U = 9.786094249936604e-08
k= 20 : RMS U = 4.9251574949580625e-08
k= 21 : RMS U = 2.4787401652849136e-08
k= 22 : RMS U = 1.2475028201777867e-08
k= 23 : RMS U = 6.278447159440999e-09
k= 24 : RMS U = 3.1598218036194538e-09
k= 25 : RMS U = 1.5902840669815077e-09
The simulation has converged in  26  iterations
|Bench| Time (s):  5.683621883392334
result samples:
u[ 0 ] =  -1.1920951671438927e-07
u[ 419430 ] =  0.04499992482473523
u[ 838860 ] =  0.07999993543679544
u[ 1258290 ] =  0.10499994630079647
u[ 1677720 ] =  0.11999995391834647
u[ 2097150 ] =  0.12499996426193023
u[ 2516580 ] =  0.11999998521222201
u[ 2936010 ] =  0.10500001951243966
u[ 3355440 ] =  0.08000007235141963
u[ 3774870 ] =  0.045000144025146564
u[ 4194300 ] =  2.3841839751250414e-07
case :  diffusion
M  :  4194304
dx :  2.384186359449949e-07
dt :  0.1
eps:  1e-09
k= 0 : RMS U = 0.04541927413192011
k= 1 : RMS U = 0.022806370010027978
k= 2 : RMS U = 0.01147700939421402
k= 3 : RMS U = 0.005776142880309376
k= 4 : RMS U = 0.002907023799079953
k= 5 : RMS U = 0.0014630504643037324
k= 6 : RMS U = 0.0007363258166587219
k= 7 : RMS U = 0.00037057895241739483
k= 8 : RMS U = 0.0001865054258318681
k= 9 : RMS U = 9.386467751701669e-05
k= 10 : RMS U = 4.724032904260689e-05
k= 11 : RMS U = 2.377517024015295e-05
k= 12 : RMS U = 1.1965596603487778e-05
k= 13 : RMS U = 6.022059996790986e-06
k= 14 : RMS U = 3.0307896925692677e-06
k= 15 : RMS U = 1.52533951084201e-06
k= 16 : RMS U = 7.676747338788945e-07
k= 17 : RMS U = 3.8635626374947923e-07
k= 18 : RMS U = 1.9444585432654678e-07
k= 19 : RMS U = 9.786094249936604e-08
k= 20 : RMS U = 4.9251574949580625e-08
k= 21 : RMS U = 2.4787401652849136e-08
k= 22 : RMS U = 1.2475028201777867e-08
k= 23 : RMS U = 6.278447159440999e-09
k= 24 : RMS U = 3.1598218036194538e-09
k= 25 : RMS U = 1.5902840669815077e-09
The simulation has converged in  26  iterations
|Bench| Time (s):  5.704869270324707
result samples:
u[ 0 ] =  -1.1920951671438927e-07
u[ 419430 ] =  0.04499992482473523
u[ 838860 ] =  0.07999993543679544
u[ 1258290 ] =  0.10499994630079647
u[ 1677720 ] =  0.11999995391834647
u[ 2097150 ] =  0.12499996426193023
u[ 2516580 ] =  0.11999998521222201
u[ 2936010 ] =  0.10500001951243966
u[ 3355440 ] =  0.08000007235141963
u[ 3774870 ] =  0.045000144025146564
u[ 4194300 ] =  2.3841839751250414e-07
case :  diffusion
M  :  4194304
dx :  2.384186359449949e-07
dt :  0.1
eps:  1e-09
k= 0 : RMS U = 0.04541927413192011
k= 1 : RMS U = 0.022806370010027978
k= 2 : RMS U = 0.01147700939421402
k= 3 : RMS U = 0.005776142880309376
k= 4 : RMS U = 0.002907023799079953
k= 5 : RMS U = 0.0014630504643037324
k= 6 : RMS U = 0.0007363258166587219
k= 7 : RMS U = 0.00037057895241739483
k= 8 : RMS U = 0.0001865054258318681
k= 9 : RMS U = 9.386467751701669e-05
k= 10 : RMS U = 4.724032904260689e-05
k= 11 : RMS U = 2.377517024015295e-05
k= 12 : RMS U = 1.1965596603487778e-05
k= 13 : RMS U = 6.022059996790986e-06
k= 14 : RMS U = 3.0307896925692677e-06
k= 15 : RMS U = 1.52533951084201e-06
k= 16 : RMS U = 7.676747338788945e-07
k= 17 : RMS U = 3.8635626374947923e-07
k= 18 : RMS U = 1.9444585432654678e-07
k= 19 : RMS U = 9.786094249936604e-08
k= 20 : RMS U = 4.9251574949580625e-08
k= 21 : RMS U = 2.4787401652849136e-08
k= 22 : RMS U = 1.2475028201777867e-08
k= 23 : RMS U = 6.278447159440999e-09
k= 24 : RMS U = 3.1598218036194538e-09
k= 25 : RMS U = 1.5902840669815077e-09
The simulation has converged in  26  iterations
|Bench| Time (s):  5.653529405593872
result samples:
u[ 0 ] =  -1.1920951671438927e-07
u[ 419430 ] =  0.04499992482473523
u[ 838860 ] =  0.07999993543679544
u[ 1258290 ] =  0.10499994630079647
u[ 1677720 ] =  0.11999995391834647
u[ 2097150 ] =  0.12499996426193023
u[ 2516580 ] =  0.11999998521222201
u[ 2936010 ] =  0.10500001951243966
u[ 3355440 ] =  0.08000007235141963
u[ 3774870 ] =  0.045000144025146564
u[ 4194300 ] =  2.3841839751250414e-07
case :  diffusion
M  :  4194304
dx :  2.384186359449949e-07
dt :  0.1
eps:  1e-09
k= 0 : RMS U = 0.04541927413192011
k= 1 : RMS U = 0.022806370010027978
k= 2 : RMS U = 0.01147700939421402
k= 3 : RMS U = 0.005776142880309376
k= 4 : RMS U = 0.002907023799079953
k= 5 : RMS U = 0.0014630504643037324
k= 6 : RMS U = 0.0007363258166587219
k= 7 : RMS U = 0.00037057895241739483
k= 8 : RMS U = 0.0001865054258318681
k= 9 : RMS U = 9.386467751701669e-05
k= 10 : RMS U = 4.724032904260689e-05
k= 11 : RMS U = 2.377517024015295e-05
k= 12 : RMS U = 1.1965596603487778e-05
k= 13 : RMS U = 6.022059996790986e-06
k= 14 : RMS U = 3.0307896925692677e-06
k= 15 : RMS U = 1.52533951084201e-06
k= 16 : RMS U = 7.676747338788945e-07
k= 17 : RMS U = 3.8635626374947923e-07
k= 18 : RMS U = 1.9444585432654678e-07
k= 19 : RMS U = 9.786094249936604e-08
k= 20 : RMS U = 4.9251574949580625e-08
k= 21 : RMS U = 2.4787401652849136e-08
k= 22 : RMS U = 1.2475028201777867e-08
k= 23 : RMS U = 6.278447159440999e-09
k= 24 : RMS U = 3.1598218036194538e-09
k= 25 : RMS U = 1.5902840669815077e-09
The simulation has converged in  26  iterations
|Bench| Time (s):  5.649998903274536
result samples:
u[ 0 ] =  -1.1920951671438927e-07
u[ 419430 ] =  0.04499992482473523
u[ 838860 ] =  0.07999993543679544
u[ 1258290 ] =  0.10499994630079647
u[ 1677720 ] =  0.11999995391834647
u[ 2097150 ] =  0.12499996426193023
u[ 2516580 ] =  0.11999998521222201
u[ 2936010 ] =  0.10500001951243966
u[ 3355440 ] =  0.08000007235141963
u[ 3774870 ] =  0.045000144025146564
u[ 4194300 ] =  2.3841839751250414e-07
|Bench| BENCHMARK Stop:  1641756861
