|Bench| WARMUP 100 iterations [len = 65536]---
|Bench| WARMUP Start: 1641755026 
|Bench| WARMUP WARMUP Stop: 1641755029 
|Bench| BENCHMARK 10 iterations [4194304]---
|Bench| BENCHMARK Start: 1641755032 
case = 0 
M = 4194304 
dx = 2.3841863594499491e-07 
dt = 0.10000000000000001 
eps = 1.0000000000000001e-09 
k=0 : RMS U = 0.045419274131920109
k=1 : RMS U = 0.022806370010027978
k=2 : RMS U = 0.011477009394214021
k=3 : RMS U = 0.0057761428803093763
k=4 : RMS U = 0.0029070237990799531
k=5 : RMS U = 0.0014630504643037324
k=6 : RMS U = 0.0007363258166587219
k=7 : RMS U = 0.00037057895241739483
k=8 : RMS U = 0.00018650542583186809
k=9 : RMS U = 9.3864677517016686e-05
k=10 : RMS U = 4.7240329042606891e-05
k=11 : RMS U = 2.377517024015295e-05
k=12 : RMS U = 1.1965596603487778e-05
k=13 : RMS U = 6.0220599967909861e-06
k=14 : RMS U = 3.0307896925692677e-06
k=15 : RMS U = 1.52533951084201e-06
k=16 : RMS U = 7.6767473387889452e-07
k=17 : RMS U = 3.8635626374947923e-07
k=18 : RMS U = 1.9444585432654678e-07
k=19 : RMS U = 9.7860942499366044e-08
k=20 : RMS U = 4.9251574949580625e-08
k=21 : RMS U = 2.4787401652849136e-08
k=22 : RMS U = 1.2475028201777867e-08
k=23 : RMS U = 6.2784471594409989e-09
k=24 : RMS U = 3.1598218036194538e-09
k=25 : RMS U = 1.5902840669815077e-09
The simulation has converged in 26 iterations
|Bench| Time (s): 3.873530 
result samples:
u[0] = -1.1920951671438927e-07 
u[419430] = 0.044999924824735228 
u[838860] = 0.079999935436795441 
u[1258290] = 0.10499994630079647 
u[1677720] = 0.11999995391834647 
u[2097150] = 0.12499996426193023 
u[2516580] = 0.11999998521222201 
u[2936010] = 0.10500001951243966 
u[3355440] = 0.080000072351419635 
u[3774870] = 0.045000144025146564 
u[4194300] = 2.3841839751250414e-07 
case = 0 
M = 4194304 
dx = 2.3841863594499491e-07 
dt = 0.10000000000000001 
eps = 1.0000000000000001e-09 
k=0 : RMS U = 0.045419274131920109
k=1 : RMS U = 0.022806370010027978
k=2 : RMS U = 0.011477009394214021
k=3 : RMS U = 0.0057761428803093763
k=4 : RMS U = 0.0029070237990799531
k=5 : RMS U = 0.0014630504643037324
k=6 : RMS U = 0.0007363258166587219
k=7 : RMS U = 0.00037057895241739483
k=8 : RMS U = 0.00018650542583186809
k=9 : RMS U = 9.3864677517016686e-05
k=10 : RMS U = 4.7240329042606891e-05
k=11 : RMS U = 2.377517024015295e-05
k=12 : RMS U = 1.1965596603487778e-05
k=13 : RMS U = 6.0220599967909861e-06
k=14 : RMS U = 3.0307896925692677e-06
k=15 : RMS U = 1.52533951084201e-06
k=16 : RMS U = 7.6767473387889452e-07
k=17 : RMS U = 3.8635626374947923e-07
k=18 : RMS U = 1.9444585432654678e-07
k=19 : RMS U = 9.7860942499366044e-08
k=20 : RMS U = 4.9251574949580625e-08
k=21 : RMS U = 2.4787401652849136e-08
k=22 : RMS U = 1.2475028201777867e-08
k=23 : RMS U = 6.2784471594409989e-09
k=24 : RMS U = 3.1598218036194538e-09
k=25 : RMS U = 1.5902840669815077e-09
The simulation has converged in 26 iterations
|Bench| Time (s): 3.836448 
result samples:
u[0] = -1.1920951671438927e-07 
u[419430] = 0.044999924824735228 
u[838860] = 0.079999935436795441 
u[1258290] = 0.10499994630079647 
u[1677720] = 0.11999995391834647 
u[2097150] = 0.12499996426193023 
u[2516580] = 0.11999998521222201 
u[2936010] = 0.10500001951243966 
u[3355440] = 0.080000072351419635 
u[3774870] = 0.045000144025146564 
u[4194300] = 2.3841839751250414e-07 
case = 0 
M = 4194304 
dx = 2.3841863594499491e-07 
dt = 0.10000000000000001 
eps = 1.0000000000000001e-09 
k=0 : RMS U = 0.045419274131920109
k=1 : RMS U = 0.022806370010027978
k=2 : RMS U = 0.011477009394214021
k=3 : RMS U = 0.0057761428803093763
k=4 : RMS U = 0.0029070237990799531
k=5 : RMS U = 0.0014630504643037324
k=6 : RMS U = 0.0007363258166587219
k=7 : RMS U = 0.00037057895241739483
k=8 : RMS U = 0.00018650542583186809
k=9 : RMS U = 9.3864677517016686e-05
k=10 : RMS U = 4.7240329042606891e-05
k=11 : RMS U = 2.377517024015295e-05
k=12 : RMS U = 1.1965596603487778e-05
k=13 : RMS U = 6.0220599967909861e-06
k=14 : RMS U = 3.0307896925692677e-06
k=15 : RMS U = 1.52533951084201e-06
k=16 : RMS U = 7.6767473387889452e-07
k=17 : RMS U = 3.8635626374947923e-07
k=18 : RMS U = 1.9444585432654678e-07
k=19 : RMS U = 9.7860942499366044e-08
k=20 : RMS U = 4.9251574949580625e-08
k=21 : RMS U = 2.4787401652849136e-08
k=22 : RMS U = 1.2475028201777867e-08
k=23 : RMS U = 6.2784471594409989e-09
k=24 : RMS U = 3.1598218036194538e-09
k=25 : RMS U = 1.5902840669815077e-09
The simulation has converged in 26 iterations
|Bench| Time (s): 3.838642 
result samples:
u[0] = -1.1920951671438927e-07 
u[419430] = 0.044999924824735228 
u[838860] = 0.079999935436795441 
u[1258290] = 0.10499994630079647 
u[1677720] = 0.11999995391834647 
u[2097150] = 0.12499996426193023 
u[2516580] = 0.11999998521222201 
u[2936010] = 0.10500001951243966 
u[3355440] = 0.080000072351419635 
u[3774870] = 0.045000144025146564 
u[4194300] = 2.3841839751250414e-07 
case = 0 
M = 4194304 
dx = 2.3841863594499491e-07 
dt = 0.10000000000000001 
eps = 1.0000000000000001e-09 
k=0 : RMS U = 0.045419274131920109
k=1 : RMS U = 0.022806370010027978
k=2 : RMS U = 0.011477009394214021
k=3 : RMS U = 0.0057761428803093763
k=4 : RMS U = 0.0029070237990799531
k=5 : RMS U = 0.0014630504643037324
k=6 : RMS U = 0.0007363258166587219
k=7 : RMS U = 0.00037057895241739483
k=8 : RMS U = 0.00018650542583186809
k=9 : RMS U = 9.3864677517016686e-05
k=10 : RMS U = 4.7240329042606891e-05
k=11 : RMS U = 2.377517024015295e-05
k=12 : RMS U = 1.1965596603487778e-05
k=13 : RMS U = 6.0220599967909861e-06
k=14 : RMS U = 3.0307896925692677e-06
k=15 : RMS U = 1.52533951084201e-06
k=16 : RMS U = 7.6767473387889452e-07
k=17 : RMS U = 3.8635626374947923e-07
k=18 : RMS U = 1.9444585432654678e-07
k=19 : RMS U = 9.7860942499366044e-08
k=20 : RMS U = 4.9251574949580625e-08
k=21 : RMS U = 2.4787401652849136e-08
k=22 : RMS U = 1.2475028201777867e-08
k=23 : RMS U = 6.2784471594409989e-09
k=24 : RMS U = 3.1598218036194538e-09
k=25 : RMS U = 1.5902840669815077e-09
The simulation has converged in 26 iterations
|Bench| Time (s): 3.840614 
result samples:
u[0] = -1.1920951671438927e-07 
u[419430] = 0.044999924824735228 
u[838860] = 0.079999935436795441 
u[1258290] = 0.10499994630079647 
u[1677720] = 0.11999995391834647 
u[2097150] = 0.12499996426193023 
u[2516580] = 0.11999998521222201 
u[2936010] = 0.10500001951243966 
u[3355440] = 0.080000072351419635 
u[3774870] = 0.045000144025146564 
u[4194300] = 2.3841839751250414e-07 
case = 0 
M = 4194304 
dx = 2.3841863594499491e-07 
dt = 0.10000000000000001 
eps = 1.0000000000000001e-09 
k=0 : RMS U = 0.045419274131920109
k=1 : RMS U = 0.022806370010027978
k=2 : RMS U = 0.011477009394214021
k=3 : RMS U = 0.0057761428803093763
k=4 : RMS U = 0.0029070237990799531
k=5 : RMS U = 0.0014630504643037324
k=6 : RMS U = 0.0007363258166587219
k=7 : RMS U = 0.00037057895241739483
k=8 : RMS U = 0.00018650542583186809
k=9 : RMS U = 9.3864677517016686e-05
k=10 : RMS U = 4.7240329042606891e-05
k=11 : RMS U = 2.377517024015295e-05
k=12 : RMS U = 1.1965596603487778e-05
k=13 : RMS U = 6.0220599967909861e-06
k=14 : RMS U = 3.0307896925692677e-06
k=15 : RMS U = 1.52533951084201e-06
k=16 : RMS U = 7.6767473387889452e-07
k=17 : RMS U = 3.8635626374947923e-07
k=18 : RMS U = 1.9444585432654678e-07
k=19 : RMS U = 9.7860942499366044e-08
k=20 : RMS U = 4.9251574949580625e-08
k=21 : RMS U = 2.4787401652849136e-08
k=22 : RMS U = 1.2475028201777867e-08
k=23 : RMS U = 6.2784471594409989e-09
k=24 : RMS U = 3.1598218036194538e-09
k=25 : RMS U = 1.5902840669815077e-09
The simulation has converged in 26 iterations
|Bench| Time (s): 3.834729 
result samples:
u[0] = -1.1920951671438927e-07 
u[419430] = 0.044999924824735228 
u[838860] = 0.079999935436795441 
u[1258290] = 0.10499994630079647 
u[1677720] = 0.11999995391834647 
u[2097150] = 0.12499996426193023 
u[2516580] = 0.11999998521222201 
u[2936010] = 0.10500001951243966 
u[3355440] = 0.080000072351419635 
u[3774870] = 0.045000144025146564 
u[4194300] = 2.3841839751250414e-07 
case = 0 
M = 4194304 
dx = 2.3841863594499491e-07 
dt = 0.10000000000000001 
eps = 1.0000000000000001e-09 
k=0 : RMS U = 0.045419274131920109
k=1 : RMS U = 0.022806370010027978
k=2 : RMS U = 0.011477009394214021
k=3 : RMS U = 0.0057761428803093763
k=4 : RMS U = 0.0029070237990799531
k=5 : RMS U = 0.0014630504643037324
k=6 : RMS U = 0.0007363258166587219
k=7 : RMS U = 0.00037057895241739483
k=8 : RMS U = 0.00018650542583186809
k=9 : RMS U = 9.3864677517016686e-05
k=10 : RMS U = 4.7240329042606891e-05
k=11 : RMS U = 2.377517024015295e-05
k=12 : RMS U = 1.1965596603487778e-05
k=13 : RMS U = 6.0220599967909861e-06
k=14 : RMS U = 3.0307896925692677e-06
k=15 : RMS U = 1.52533951084201e-06
k=16 : RMS U = 7.6767473387889452e-07
k=17 : RMS U = 3.8635626374947923e-07
k=18 : RMS U = 1.9444585432654678e-07
k=19 : RMS U = 9.7860942499366044e-08
k=20 : RMS U = 4.9251574949580625e-08
k=21 : RMS U = 2.4787401652849136e-08
k=22 : RMS U = 1.2475028201777867e-08
k=23 : RMS U = 6.2784471594409989e-09
k=24 : RMS U = 3.1598218036194538e-09
k=25 : RMS U = 1.5902840669815077e-09
The simulation has converged in 26 iterations
|Bench| Time (s): 3.829608 
result samples:
u[0] = -1.1920951671438927e-07 
u[419430] = 0.044999924824735228 
u[838860] = 0.079999935436795441 
u[1258290] = 0.10499994630079647 
u[1677720] = 0.11999995391834647 
u[2097150] = 0.12499996426193023 
u[2516580] = 0.11999998521222201 
u[2936010] = 0.10500001951243966 
u[3355440] = 0.080000072351419635 
u[3774870] = 0.045000144025146564 
u[4194300] = 2.3841839751250414e-07 
case = 0 
M = 4194304 
dx = 2.3841863594499491e-07 
dt = 0.10000000000000001 
eps = 1.0000000000000001e-09 
k=0 : RMS U = 0.045419274131920109
k=1 : RMS U = 0.022806370010027978
k=2 : RMS U = 0.011477009394214021
k=3 : RMS U = 0.0057761428803093763
k=4 : RMS U = 0.0029070237990799531
k=5 : RMS U = 0.0014630504643037324
k=6 : RMS U = 0.0007363258166587219
k=7 : RMS U = 0.00037057895241739483
k=8 : RMS U = 0.00018650542583186809
k=9 : RMS U = 9.3864677517016686e-05
k=10 : RMS U = 4.7240329042606891e-05
k=11 : RMS U = 2.377517024015295e-05
k=12 : RMS U = 1.1965596603487778e-05
k=13 : RMS U = 6.0220599967909861e-06
k=14 : RMS U = 3.0307896925692677e-06
k=15 : RMS U = 1.52533951084201e-06
k=16 : RMS U = 7.6767473387889452e-07
k=17 : RMS U = 3.8635626374947923e-07
k=18 : RMS U = 1.9444585432654678e-07
k=19 : RMS U = 9.7860942499366044e-08
k=20 : RMS U = 4.9251574949580625e-08
k=21 : RMS U = 2.4787401652849136e-08
k=22 : RMS U = 1.2475028201777867e-08
k=23 : RMS U = 6.2784471594409989e-09
k=24 : RMS U = 3.1598218036194538e-09
k=25 : RMS U = 1.5902840669815077e-09
The simulation has converged in 26 iterations
|Bench| Time (s): 3.835544 
result samples:
u[0] = -1.1920951671438927e-07 
u[419430] = 0.044999924824735228 
u[838860] = 0.079999935436795441 
u[1258290] = 0.10499994630079647 
u[1677720] = 0.11999995391834647 
u[2097150] = 0.12499996426193023 
u[2516580] = 0.11999998521222201 
u[2936010] = 0.10500001951243966 
u[3355440] = 0.080000072351419635 
u[3774870] = 0.045000144025146564 
u[4194300] = 2.3841839751250414e-07 
case = 0 
M = 4194304 
dx = 2.3841863594499491e-07 
dt = 0.10000000000000001 
eps = 1.0000000000000001e-09 
k=0 : RMS U = 0.045419274131920109
k=1 : RMS U = 0.022806370010027978
k=2 : RMS U = 0.011477009394214021
k=3 : RMS U = 0.0057761428803093763
k=4 : RMS U = 0.0029070237990799531
k=5 : RMS U = 0.0014630504643037324
k=6 : RMS U = 0.0007363258166587219
k=7 : RMS U = 0.00037057895241739483
k=8 : RMS U = 0.00018650542583186809
k=9 : RMS U = 9.3864677517016686e-05
k=10 : RMS U = 4.7240329042606891e-05
k=11 : RMS U = 2.377517024015295e-05
k=12 : RMS U = 1.1965596603487778e-05
k=13 : RMS U = 6.0220599967909861e-06
k=14 : RMS U = 3.0307896925692677e-06
k=15 : RMS U = 1.52533951084201e-06
k=16 : RMS U = 7.6767473387889452e-07
k=17 : RMS U = 3.8635626374947923e-07
k=18 : RMS U = 1.9444585432654678e-07
k=19 : RMS U = 9.7860942499366044e-08
k=20 : RMS U = 4.9251574949580625e-08
k=21 : RMS U = 2.4787401652849136e-08
k=22 : RMS U = 1.2475028201777867e-08
k=23 : RMS U = 6.2784471594409989e-09
k=24 : RMS U = 3.1598218036194538e-09
k=25 : RMS U = 1.5902840669815077e-09
The simulation has converged in 26 iterations
|Bench| Time (s): 3.830833 
result samples:
u[0] = -1.1920951671438927e-07 
u[419430] = 0.044999924824735228 
u[838860] = 0.079999935436795441 
u[1258290] = 0.10499994630079647 
u[1677720] = 0.11999995391834647 
u[2097150] = 0.12499996426193023 
u[2516580] = 0.11999998521222201 
u[2936010] = 0.10500001951243966 
u[3355440] = 0.080000072351419635 
u[3774870] = 0.045000144025146564 
u[4194300] = 2.3841839751250414e-07 
case = 0 
M = 4194304 
dx = 2.3841863594499491e-07 
dt = 0.10000000000000001 
eps = 1.0000000000000001e-09 
k=0 : RMS U = 0.045419274131920109
k=1 : RMS U = 0.022806370010027978
k=2 : RMS U = 0.011477009394214021
k=3 : RMS U = 0.0057761428803093763
k=4 : RMS U = 0.0029070237990799531
k=5 : RMS U = 0.0014630504643037324
k=6 : RMS U = 0.0007363258166587219
k=7 : RMS U = 0.00037057895241739483
k=8 : RMS U = 0.00018650542583186809
k=9 : RMS U = 9.3864677517016686e-05
k=10 : RMS U = 4.7240329042606891e-05
k=11 : RMS U = 2.377517024015295e-05
k=12 : RMS U = 1.1965596603487778e-05
k=13 : RMS U = 6.0220599967909861e-06
k=14 : RMS U = 3.0307896925692677e-06
k=15 : RMS U = 1.52533951084201e-06
k=16 : RMS U = 7.6767473387889452e-07
k=17 : RMS U = 3.8635626374947923e-07
k=18 : RMS U = 1.9444585432654678e-07
k=19 : RMS U = 9.7860942499366044e-08
k=20 : RMS U = 4.9251574949580625e-08
k=21 : RMS U = 2.4787401652849136e-08
k=22 : RMS U = 1.2475028201777867e-08
k=23 : RMS U = 6.2784471594409989e-09
k=24 : RMS U = 3.1598218036194538e-09
k=25 : RMS U = 1.5902840669815077e-09
The simulation has converged in 26 iterations
|Bench| Time (s): 3.820295 
result samples:
u[0] = -1.1920951671438927e-07 
u[419430] = 0.044999924824735228 
u[838860] = 0.079999935436795441 
u[1258290] = 0.10499994630079647 
u[1677720] = 0.11999995391834647 
u[2097150] = 0.12499996426193023 
u[2516580] = 0.11999998521222201 
u[2936010] = 0.10500001951243966 
u[3355440] = 0.080000072351419635 
u[3774870] = 0.045000144025146564 
u[4194300] = 2.3841839751250414e-07 
case = 0 
M = 4194304 
dx = 2.3841863594499491e-07 
dt = 0.10000000000000001 
eps = 1.0000000000000001e-09 
k=0 : RMS U = 0.045419274131920109
k=1 : RMS U = 0.022806370010027978
k=2 : RMS U = 0.011477009394214021
k=3 : RMS U = 0.0057761428803093763
k=4 : RMS U = 0.0029070237990799531
k=5 : RMS U = 0.0014630504643037324
k=6 : RMS U = 0.0007363258166587219
k=7 : RMS U = 0.00037057895241739483
k=8 : RMS U = 0.00018650542583186809
k=9 : RMS U = 9.3864677517016686e-05
k=10 : RMS U = 4.7240329042606891e-05
k=11 : RMS U = 2.377517024015295e-05
k=12 : RMS U = 1.1965596603487778e-05
k=13 : RMS U = 6.0220599967909861e-06
k=14 : RMS U = 3.0307896925692677e-06
k=15 : RMS U = 1.52533951084201e-06
k=16 : RMS U = 7.6767473387889452e-07
k=17 : RMS U = 3.8635626374947923e-07
k=18 : RMS U = 1.9444585432654678e-07
k=19 : RMS U = 9.7860942499366044e-08
k=20 : RMS U = 4.9251574949580625e-08
k=21 : RMS U = 2.4787401652849136e-08
k=22 : RMS U = 1.2475028201777867e-08
k=23 : RMS U = 6.2784471594409989e-09
k=24 : RMS U = 3.1598218036194538e-09
k=25 : RMS U = 1.5902840669815077e-09
The simulation has converged in 26 iterations
|Bench| Time (s): 3.803607 
result samples:
u[0] = -1.1920951671438927e-07 
u[419430] = 0.044999924824735228 
u[838860] = 0.079999935436795441 
u[1258290] = 0.10499994630079647 
u[1677720] = 0.11999995391834647 
u[2097150] = 0.12499996426193023 
u[2516580] = 0.11999998521222201 
u[2936010] = 0.10500001951243966 
u[3355440] = 0.080000072351419635 
u[3774870] = 0.045000144025146564 
u[4194300] = 2.3841839751250414e-07 
|Bench| BENCHMARK Stop: 1641755071 
