rustc 1.44.1 (c7087fe00 2020-06-17)
Running main.rs
    Blocking waiting for file lock on package cache
    Blocking waiting for file lock on package cache
    Blocking waiting for file lock on package cache
    Blocking waiting for file lock on build directory
    Finished release [optimized] target(s) in 0.19s
     Running `target/release/main_opt`
|Bench| WARMUP 100 iterations [len = 65536]---
|Bench| WARMUP Start: 1641510855
|Bench| WARMUP Stop: 1641510867
|Bench| BENCHMARK 10 iterations [4194304]---
|Bench| BENCHMARK Start: 1641510870
case : 1
M  : 4194304
dpdx : 1
dt : 0.1
eps: 0.000000001
k=0: RMS U = 0.04541927413192011
k=1: RMS U = 0.022806370010027978
k=2: RMS U = 0.01147700939421402
k=3: RMS U = 0.005776142880309376
k=4: RMS U = 0.002907023799079953
k=5: RMS U = 0.0014630504643037324
k=6: RMS U = 0.0007363258166587219
k=7: RMS U = 0.00037057895241739483
k=8: RMS U = 0.0001865054258318681
k=9: RMS U = 0.00009386467751701669
k=10: RMS U = 0.00004724032904260689
k=11: RMS U = 0.00002377517024015295
k=12: RMS U = 0.000011965596603487778
k=13: RMS U = 0.000006022059996790986
k=14: RMS U = 0.0000030307896925692677
k=15: RMS U = 0.00000152533951084201
k=16: RMS U = 0.0000007676747338788945
k=17: RMS U = 0.00000038635626374947923
k=18: RMS U = 0.00000019444585432654678
k=19: RMS U = 0.00000009786094249936604
k=20: RMS U = 0.000000049251574949580625
k=21: RMS U = 0.000000024787401652849136
k=22: RMS U = 0.000000012475028201777867
k=23: RMS U = 0.000000006278447159440999
k=24: RMS U = 0.0000000031598218036194538
k=25: RMS U = 0.0000000015902840669815077
The simulation has converged in 26 iterations
|Bench| Time (s): 7.0553174
result samples:
u[0] = -0.00000011920951671438927
u[419430] = 0.04499992482473523
u[838860] = 0.07999993543679544
u[1258290] = 0.10499994630079647
u[1677720] = 0.11999995391834647
u[2097150] = 0.12499996426193023
u[2516580] = 0.11999998521222201
u[2936010] = 0.10500001951243966
u[3355440] = 0.08000007235141963
u[3774870] = 0.045000144025146564
u[4194300] = 0.00000023841839751250414
case : 1
M  : 4194304
dpdx : 1
dt : 0.1
eps: 0.000000001
k=0: RMS U = 0.04541927413192011
k=1: RMS U = 0.022806370010027978
k=2: RMS U = 0.01147700939421402
k=3: RMS U = 0.005776142880309376
k=4: RMS U = 0.002907023799079953
k=5: RMS U = 0.0014630504643037324
k=6: RMS U = 0.0007363258166587219
k=7: RMS U = 0.00037057895241739483
k=8: RMS U = 0.0001865054258318681
k=9: RMS U = 0.00009386467751701669
k=10: RMS U = 0.00004724032904260689
k=11: RMS U = 0.00002377517024015295
k=12: RMS U = 0.000011965596603487778
k=13: RMS U = 0.000006022059996790986
k=14: RMS U = 0.0000030307896925692677
k=15: RMS U = 0.00000152533951084201
k=16: RMS U = 0.0000007676747338788945
k=17: RMS U = 0.00000038635626374947923
k=18: RMS U = 0.00000019444585432654678
k=19: RMS U = 0.00000009786094249936604
k=20: RMS U = 0.000000049251574949580625
k=21: RMS U = 0.000000024787401652849136
k=22: RMS U = 0.000000012475028201777867
k=23: RMS U = 0.000000006278447159440999
k=24: RMS U = 0.0000000031598218036194538
k=25: RMS U = 0.0000000015902840669815077
The simulation has converged in 26 iterations
|Bench| Time (s): 7.0788336
result samples:
u[0] = -0.00000011920951671438927
u[419430] = 0.04499992482473523
u[838860] = 0.07999993543679544
u[1258290] = 0.10499994630079647
u[1677720] = 0.11999995391834647
u[2097150] = 0.12499996426193023
u[2516580] = 0.11999998521222201
u[2936010] = 0.10500001951243966
u[3355440] = 0.08000007235141963
u[3774870] = 0.045000144025146564
u[4194300] = 0.00000023841839751250414
case : 1
M  : 4194304
dpdx : 1
dt : 0.1
eps: 0.000000001
k=0: RMS U = 0.04541927413192011
k=1: RMS U = 0.022806370010027978
k=2: RMS U = 0.01147700939421402
k=3: RMS U = 0.005776142880309376
k=4: RMS U = 0.002907023799079953
k=5: RMS U = 0.0014630504643037324
k=6: RMS U = 0.0007363258166587219
k=7: RMS U = 0.00037057895241739483
k=8: RMS U = 0.0001865054258318681
k=9: RMS U = 0.00009386467751701669
k=10: RMS U = 0.00004724032904260689
k=11: RMS U = 0.00002377517024015295
k=12: RMS U = 0.000011965596603487778
k=13: RMS U = 0.000006022059996790986
k=14: RMS U = 0.0000030307896925692677
k=15: RMS U = 0.00000152533951084201
k=16: RMS U = 0.0000007676747338788945
k=17: RMS U = 0.00000038635626374947923
k=18: RMS U = 0.00000019444585432654678
k=19: RMS U = 0.00000009786094249936604
k=20: RMS U = 0.000000049251574949580625
k=21: RMS U = 0.000000024787401652849136
k=22: RMS U = 0.000000012475028201777867
k=23: RMS U = 0.000000006278447159440999
k=24: RMS U = 0.0000000031598218036194538
k=25: RMS U = 0.0000000015902840669815077
The simulation has converged in 26 iterations
|Bench| Time (s): 7.09574
result samples:
u[0] = -0.00000011920951671438927
u[419430] = 0.04499992482473523
u[838860] = 0.07999993543679544
u[1258290] = 0.10499994630079647
u[1677720] = 0.11999995391834647
u[2097150] = 0.12499996426193023
u[2516580] = 0.11999998521222201
u[2936010] = 0.10500001951243966
u[3355440] = 0.08000007235141963
u[3774870] = 0.045000144025146564
u[4194300] = 0.00000023841839751250414
case : 1
M  : 4194304
dpdx : 1
dt : 0.1
eps: 0.000000001
k=0: RMS U = 0.04541927413192011
k=1: RMS U = 0.022806370010027978
k=2: RMS U = 0.01147700939421402
k=3: RMS U = 0.005776142880309376
k=4: RMS U = 0.002907023799079953
k=5: RMS U = 0.0014630504643037324
k=6: RMS U = 0.0007363258166587219
k=7: RMS U = 0.00037057895241739483
k=8: RMS U = 0.0001865054258318681
k=9: RMS U = 0.00009386467751701669
k=10: RMS U = 0.00004724032904260689
k=11: RMS U = 0.00002377517024015295
k=12: RMS U = 0.000011965596603487778
k=13: RMS U = 0.000006022059996790986
k=14: RMS U = 0.0000030307896925692677
k=15: RMS U = 0.00000152533951084201
k=16: RMS U = 0.0000007676747338788945
k=17: RMS U = 0.00000038635626374947923
k=18: RMS U = 0.00000019444585432654678
k=19: RMS U = 0.00000009786094249936604
k=20: RMS U = 0.000000049251574949580625
k=21: RMS U = 0.000000024787401652849136
k=22: RMS U = 0.000000012475028201777867
k=23: RMS U = 0.000000006278447159440999
k=24: RMS U = 0.0000000031598218036194538
k=25: RMS U = 0.0000000015902840669815077
The simulation has converged in 26 iterations
|Bench| Time (s): 7.100825
result samples:
u[0] = -0.00000011920951671438927
u[419430] = 0.04499992482473523
u[838860] = 0.07999993543679544
u[1258290] = 0.10499994630079647
u[1677720] = 0.11999995391834647
u[2097150] = 0.12499996426193023
u[2516580] = 0.11999998521222201
u[2936010] = 0.10500001951243966
u[3355440] = 0.08000007235141963
u[3774870] = 0.045000144025146564
u[4194300] = 0.00000023841839751250414
case : 1
M  : 4194304
dpdx : 1
dt : 0.1
eps: 0.000000001
k=0: RMS U = 0.04541927413192011
k=1: RMS U = 0.022806370010027978
k=2: RMS U = 0.01147700939421402
k=3: RMS U = 0.005776142880309376
k=4: RMS U = 0.002907023799079953
k=5: RMS U = 0.0014630504643037324
k=6: RMS U = 0.0007363258166587219
k=7: RMS U = 0.00037057895241739483
k=8: RMS U = 0.0001865054258318681
k=9: RMS U = 0.00009386467751701669
k=10: RMS U = 0.00004724032904260689
k=11: RMS U = 0.00002377517024015295
k=12: RMS U = 0.000011965596603487778
k=13: RMS U = 0.000006022059996790986
k=14: RMS U = 0.0000030307896925692677
k=15: RMS U = 0.00000152533951084201
k=16: RMS U = 0.0000007676747338788945
k=17: RMS U = 0.00000038635626374947923
k=18: RMS U = 0.00000019444585432654678
k=19: RMS U = 0.00000009786094249936604
k=20: RMS U = 0.000000049251574949580625
k=21: RMS U = 0.000000024787401652849136
k=22: RMS U = 0.000000012475028201777867
k=23: RMS U = 0.000000006278447159440999
k=24: RMS U = 0.0000000031598218036194538
k=25: RMS U = 0.0000000015902840669815077
The simulation has converged in 26 iterations
|Bench| Time (s): 7.1002655
result samples:
u[0] = -0.00000011920951671438927
u[419430] = 0.04499992482473523
u[838860] = 0.07999993543679544
u[1258290] = 0.10499994630079647
u[1677720] = 0.11999995391834647
u[2097150] = 0.12499996426193023
u[2516580] = 0.11999998521222201
u[2936010] = 0.10500001951243966
u[3355440] = 0.08000007235141963
u[3774870] = 0.045000144025146564
u[4194300] = 0.00000023841839751250414
case : 1
M  : 4194304
dpdx : 1
dt : 0.1
eps: 0.000000001
k=0: RMS U = 0.04541927413192011
k=1: RMS U = 0.022806370010027978
k=2: RMS U = 0.01147700939421402
k=3: RMS U = 0.005776142880309376
k=4: RMS U = 0.002907023799079953
k=5: RMS U = 0.0014630504643037324
k=6: RMS U = 0.0007363258166587219
k=7: RMS U = 0.00037057895241739483
k=8: RMS U = 0.0001865054258318681
k=9: RMS U = 0.00009386467751701669
k=10: RMS U = 0.00004724032904260689
k=11: RMS U = 0.00002377517024015295
k=12: RMS U = 0.000011965596603487778
k=13: RMS U = 0.000006022059996790986
k=14: RMS U = 0.0000030307896925692677
k=15: RMS U = 0.00000152533951084201
k=16: RMS U = 0.0000007676747338788945
k=17: RMS U = 0.00000038635626374947923
k=18: RMS U = 0.00000019444585432654678
k=19: RMS U = 0.00000009786094249936604
k=20: RMS U = 0.000000049251574949580625
k=21: RMS U = 0.000000024787401652849136
k=22: RMS U = 0.000000012475028201777867
k=23: RMS U = 0.000000006278447159440999
k=24: RMS U = 0.0000000031598218036194538
k=25: RMS U = 0.0000000015902840669815077
The simulation has converged in 26 iterations
|Bench| Time (s): 7.143885
result samples:
u[0] = -0.00000011920951671438927
u[419430] = 0.04499992482473523
u[838860] = 0.07999993543679544
u[1258290] = 0.10499994630079647
u[1677720] = 0.11999995391834647
u[2097150] = 0.12499996426193023
u[2516580] = 0.11999998521222201
u[2936010] = 0.10500001951243966
u[3355440] = 0.08000007235141963
u[3774870] = 0.045000144025146564
u[4194300] = 0.00000023841839751250414
case : 1
M  : 4194304
dpdx : 1
dt : 0.1
eps: 0.000000001
k=0: RMS U = 0.04541927413192011
k=1: RMS U = 0.022806370010027978
k=2: RMS U = 0.01147700939421402
k=3: RMS U = 0.005776142880309376
k=4: RMS U = 0.002907023799079953
k=5: RMS U = 0.0014630504643037324
k=6: RMS U = 0.0007363258166587219
k=7: RMS U = 0.00037057895241739483
k=8: RMS U = 0.0001865054258318681
k=9: RMS U = 0.00009386467751701669
k=10: RMS U = 0.00004724032904260689
k=11: RMS U = 0.00002377517024015295
k=12: RMS U = 0.000011965596603487778
k=13: RMS U = 0.000006022059996790986
k=14: RMS U = 0.0000030307896925692677
k=15: RMS U = 0.00000152533951084201
k=16: RMS U = 0.0000007676747338788945
k=17: RMS U = 0.00000038635626374947923
k=18: RMS U = 0.00000019444585432654678
k=19: RMS U = 0.00000009786094249936604
k=20: RMS U = 0.000000049251574949580625
k=21: RMS U = 0.000000024787401652849136
k=22: RMS U = 0.000000012475028201777867
k=23: RMS U = 0.000000006278447159440999
k=24: RMS U = 0.0000000031598218036194538
k=25: RMS U = 0.0000000015902840669815077
The simulation has converged in 26 iterations
|Bench| Time (s): 7.1727476
result samples:
u[0] = -0.00000011920951671438927
u[419430] = 0.04499992482473523
u[838860] = 0.07999993543679544
u[1258290] = 0.10499994630079647
u[1677720] = 0.11999995391834647
u[2097150] = 0.12499996426193023
u[2516580] = 0.11999998521222201
u[2936010] = 0.10500001951243966
u[3355440] = 0.08000007235141963
u[3774870] = 0.045000144025146564
u[4194300] = 0.00000023841839751250414
case : 1
M  : 4194304
dpdx : 1
dt : 0.1
eps: 0.000000001
k=0: RMS U = 0.04541927413192011
k=1: RMS U = 0.022806370010027978
k=2: RMS U = 0.01147700939421402
k=3: RMS U = 0.005776142880309376
k=4: RMS U = 0.002907023799079953
k=5: RMS U = 0.0014630504643037324
k=6: RMS U = 0.0007363258166587219
k=7: RMS U = 0.00037057895241739483
k=8: RMS U = 0.0001865054258318681
k=9: RMS U = 0.00009386467751701669
k=10: RMS U = 0.00004724032904260689
k=11: RMS U = 0.00002377517024015295
k=12: RMS U = 0.000011965596603487778
k=13: RMS U = 0.000006022059996790986
k=14: RMS U = 0.0000030307896925692677
k=15: RMS U = 0.00000152533951084201
k=16: RMS U = 0.0000007676747338788945
k=17: RMS U = 0.00000038635626374947923
k=18: RMS U = 0.00000019444585432654678
k=19: RMS U = 0.00000009786094249936604
k=20: RMS U = 0.000000049251574949580625
k=21: RMS U = 0.000000024787401652849136
k=22: RMS U = 0.000000012475028201777867
k=23: RMS U = 0.000000006278447159440999
k=24: RMS U = 0.0000000031598218036194538
k=25: RMS U = 0.0000000015902840669815077
The simulation has converged in 26 iterations
|Bench| Time (s): 7.0419354
result samples:
u[0] = -0.00000011920951671438927
u[419430] = 0.04499992482473523
u[838860] = 0.07999993543679544
u[1258290] = 0.10499994630079647
u[1677720] = 0.11999995391834647
u[2097150] = 0.12499996426193023
u[2516580] = 0.11999998521222201
u[2936010] = 0.10500001951243966
u[3355440] = 0.08000007235141963
u[3774870] = 0.045000144025146564
u[4194300] = 0.00000023841839751250414
case : 1
M  : 4194304
dpdx : 1
dt : 0.1
eps: 0.000000001
k=0: RMS U = 0.04541927413192011
k=1: RMS U = 0.022806370010027978
k=2: RMS U = 0.01147700939421402
k=3: RMS U = 0.005776142880309376
k=4: RMS U = 0.002907023799079953
k=5: RMS U = 0.0014630504643037324
k=6: RMS U = 0.0007363258166587219
k=7: RMS U = 0.00037057895241739483
k=8: RMS U = 0.0001865054258318681
k=9: RMS U = 0.00009386467751701669
k=10: RMS U = 0.00004724032904260689
k=11: RMS U = 0.00002377517024015295
k=12: RMS U = 0.000011965596603487778
k=13: RMS U = 0.000006022059996790986
k=14: RMS U = 0.0000030307896925692677
k=15: RMS U = 0.00000152533951084201
k=16: RMS U = 0.0000007676747338788945
k=17: RMS U = 0.00000038635626374947923
k=18: RMS U = 0.00000019444585432654678
k=19: RMS U = 0.00000009786094249936604
k=20: RMS U = 0.000000049251574949580625
k=21: RMS U = 0.000000024787401652849136
k=22: RMS U = 0.000000012475028201777867
k=23: RMS U = 0.000000006278447159440999
k=24: RMS U = 0.0000000031598218036194538
k=25: RMS U = 0.0000000015902840669815077
The simulation has converged in 26 iterations
|Bench| Time (s): 7.0628414
result samples:
u[0] = -0.00000011920951671438927
u[419430] = 0.04499992482473523
u[838860] = 0.07999993543679544
u[1258290] = 0.10499994630079647
u[1677720] = 0.11999995391834647
u[2097150] = 0.12499996426193023
u[2516580] = 0.11999998521222201
u[2936010] = 0.10500001951243966
u[3355440] = 0.08000007235141963
u[3774870] = 0.045000144025146564
u[4194300] = 0.00000023841839751250414
case : 1
M  : 4194304
dpdx : 1
dt : 0.1
eps: 0.000000001
k=0: RMS U = 0.04541927413192011
k=1: RMS U = 0.022806370010027978
k=2: RMS U = 0.01147700939421402
k=3: RMS U = 0.005776142880309376
k=4: RMS U = 0.002907023799079953
k=5: RMS U = 0.0014630504643037324
k=6: RMS U = 0.0007363258166587219
k=7: RMS U = 0.00037057895241739483
k=8: RMS U = 0.0001865054258318681
k=9: RMS U = 0.00009386467751701669
k=10: RMS U = 0.00004724032904260689
k=11: RMS U = 0.00002377517024015295
k=12: RMS U = 0.000011965596603487778
k=13: RMS U = 0.000006022059996790986
k=14: RMS U = 0.0000030307896925692677
k=15: RMS U = 0.00000152533951084201
k=16: RMS U = 0.0000007676747338788945
k=17: RMS U = 0.00000038635626374947923
k=18: RMS U = 0.00000019444585432654678
k=19: RMS U = 0.00000009786094249936604
k=20: RMS U = 0.000000049251574949580625
k=21: RMS U = 0.000000024787401652849136
k=22: RMS U = 0.000000012475028201777867
k=23: RMS U = 0.000000006278447159440999
k=24: RMS U = 0.0000000031598218036194538
k=25: RMS U = 0.0000000015902840669815077
The simulation has converged in 26 iterations
|Bench| Time (s): 7.080394
result samples:
u[0] = -0.00000011920951671438927
u[419430] = 0.04499992482473523
u[838860] = 0.07999993543679544
u[1258290] = 0.10499994630079647
u[1677720] = 0.11999995391834647
u[2097150] = 0.12499996426193023
u[2516580] = 0.11999998521222201
u[2936010] = 0.10500001951243966
u[3355440] = 0.08000007235141963
u[3774870] = 0.045000144025146564
u[4194300] = 0.00000023841839751250414
|Bench| BENCHMARK Stop: 1641510941
