julia version 1.4.2
Running main1D_cbv3.jl
|Bench| WARMUP 100 iterations [len = 65536]---
|Bench| WARMUP Start: 1641509566

|Bench| WARMUP Stop: 1641509577

|Bench| BENCHMARK 10 iterations [4194304]---
|Bench| BENCHMARK Start: 1641509580

case : diffusion
M  : 4194304
dx : 2.384186359449949e-7
dt : 0.1
eps: 1.0e-9
k=0: RMS U =0.04541927413192138
k=1: RMS U =0.02280637001002757
k=2: RMS U =0.011477009394214931
k=3: RMS U =0.00577614288030919
k=4: RMS U =0.0029070237990800447
k=5: RMS U =0.0014630504643036992
k=6: RMS U =0.000736325816658727
k=7: RMS U =0.0003705789524173863
k=8: RMS U =0.00018650542583187362
k=9: RMS U =9.386467751701585e-5
k=10: RMS U =4.724032904260682e-5
k=11: RMS U =2.3775170240154275e-5
k=12: RMS U =1.1965596603488471e-5
k=13: RMS U =6.0220599967910784e-6
k=14: RMS U =3.0307896925693147e-6
k=15: RMS U =1.5253395108420208e-6
k=16: RMS U =7.676747338788837e-7
k=17: RMS U =3.8635626374949263e-7
k=18: RMS U =1.9444585432654284e-7
k=19: RMS U =9.786094249936709e-8
k=20: RMS U =4.925157494958246e-8
k=21: RMS U =2.4787401652848974e-8
k=22: RMS U =1.2475028201778154e-8
k=23: RMS U =6.278447159441265e-9
k=24: RMS U =3.159821803619316e-9
k=25: RMS U =1.5902840669814343e-9
The simulation has converged in 26 iterations
|Bench| Time (s): 10.433937937
result samples:
u[0] = -1.1920951671438927e-7
u[419430] = 0.04499992482473523
u[838860] = 0.07999993543679544
u[1258290] = 0.10499994630079647
u[1677720] = 0.11999995391834647
u[2097150] = 0.12499996426193023
u[2516580] = 0.11999998521222201
u[2936010] = 0.10500001951243966
u[3355440] = 0.08000007235141963
u[3774870] = 0.045000144025146564
u[4194300] = 2.3841839751250414e-7
case : diffusion
M  : 4194304
dx : 2.384186359449949e-7
dt : 0.1
eps: 1.0e-9
k=0: RMS U =0.04541927413192138
k=1: RMS U =0.02280637001002757
k=2: RMS U =0.011477009394214931
k=3: RMS U =0.00577614288030919
k=4: RMS U =0.0029070237990800447
k=5: RMS U =0.0014630504643036992
k=6: RMS U =0.000736325816658727
k=7: RMS U =0.0003705789524173863
k=8: RMS U =0.00018650542583187362
k=9: RMS U =9.386467751701585e-5
k=10: RMS U =4.724032904260682e-5
k=11: RMS U =2.3775170240154275e-5
k=12: RMS U =1.1965596603488471e-5
k=13: RMS U =6.0220599967910784e-6
k=14: RMS U =3.0307896925693147e-6
k=15: RMS U =1.5253395108420208e-6
k=16: RMS U =7.676747338788837e-7
k=17: RMS U =3.8635626374949263e-7
k=18: RMS U =1.9444585432654284e-7
k=19: RMS U =9.786094249936709e-8
k=20: RMS U =4.925157494958246e-8
k=21: RMS U =2.4787401652848974e-8
k=22: RMS U =1.2475028201778154e-8
k=23: RMS U =6.278447159441265e-9
k=24: RMS U =3.159821803619316e-9
k=25: RMS U =1.5902840669814343e-9
The simulation has converged in 26 iterations
|Bench| Time (s): 10.464654503
result samples:
u[0] = -1.1920951671438927e-7
u[419430] = 0.04499992482473523
u[838860] = 0.07999993543679544
u[1258290] = 0.10499994630079647
u[1677720] = 0.11999995391834647
u[2097150] = 0.12499996426193023
u[2516580] = 0.11999998521222201
u[2936010] = 0.10500001951243966
u[3355440] = 0.08000007235141963
u[3774870] = 0.045000144025146564
u[4194300] = 2.3841839751250414e-7
case : diffusion
M  : 4194304
dx : 2.384186359449949e-7
dt : 0.1
eps: 1.0e-9
k=0: RMS U =0.04541927413192138
k=1: RMS U =0.02280637001002757
k=2: RMS U =0.011477009394214931
k=3: RMS U =0.00577614288030919
k=4: RMS U =0.0029070237990800447
k=5: RMS U =0.0014630504643036992
k=6: RMS U =0.000736325816658727
k=7: RMS U =0.0003705789524173863
k=8: RMS U =0.00018650542583187362
k=9: RMS U =9.386467751701585e-5
k=10: RMS U =4.724032904260682e-5
k=11: RMS U =2.3775170240154275e-5
k=12: RMS U =1.1965596603488471e-5
k=13: RMS U =6.0220599967910784e-6
k=14: RMS U =3.0307896925693147e-6
k=15: RMS U =1.5253395108420208e-6
k=16: RMS U =7.676747338788837e-7
k=17: RMS U =3.8635626374949263e-7
k=18: RMS U =1.9444585432654284e-7
k=19: RMS U =9.786094249936709e-8
k=20: RMS U =4.925157494958246e-8
k=21: RMS U =2.4787401652848974e-8
k=22: RMS U =1.2475028201778154e-8
k=23: RMS U =6.278447159441265e-9
k=24: RMS U =3.159821803619316e-9
k=25: RMS U =1.5902840669814343e-9
The simulation has converged in 26 iterations
|Bench| Time (s): 10.421248515
result samples:
u[0] = -1.1920951671438927e-7
u[419430] = 0.04499992482473523
u[838860] = 0.07999993543679544
u[1258290] = 0.10499994630079647
u[1677720] = 0.11999995391834647
u[2097150] = 0.12499996426193023
u[2516580] = 0.11999998521222201
u[2936010] = 0.10500001951243966
u[3355440] = 0.08000007235141963
u[3774870] = 0.045000144025146564
u[4194300] = 2.3841839751250414e-7
case : diffusion
M  : 4194304
dx : 2.384186359449949e-7
dt : 0.1
eps: 1.0e-9
k=0: RMS U =0.04541927413192138
k=1: RMS U =0.02280637001002757
k=2: RMS U =0.011477009394214931
k=3: RMS U =0.00577614288030919
k=4: RMS U =0.0029070237990800447
k=5: RMS U =0.0014630504643036992
k=6: RMS U =0.000736325816658727
k=7: RMS U =0.0003705789524173863
k=8: RMS U =0.00018650542583187362
k=9: RMS U =9.386467751701585e-5
k=10: RMS U =4.724032904260682e-5
k=11: RMS U =2.3775170240154275e-5
k=12: RMS U =1.1965596603488471e-5
k=13: RMS U =6.0220599967910784e-6
k=14: RMS U =3.0307896925693147e-6
k=15: RMS U =1.5253395108420208e-6
k=16: RMS U =7.676747338788837e-7
k=17: RMS U =3.8635626374949263e-7
k=18: RMS U =1.9444585432654284e-7
k=19: RMS U =9.786094249936709e-8
k=20: RMS U =4.925157494958246e-8
k=21: RMS U =2.4787401652848974e-8
k=22: RMS U =1.2475028201778154e-8
k=23: RMS U =6.278447159441265e-9
k=24: RMS U =3.159821803619316e-9
k=25: RMS U =1.5902840669814343e-9
The simulation has converged in 26 iterations
|Bench| Time (s): 10.242135145
result samples:
u[0] = -1.1920951671438927e-7
u[419430] = 0.04499992482473523
u[838860] = 0.07999993543679544
u[1258290] = 0.10499994630079647
u[1677720] = 0.11999995391834647
u[2097150] = 0.12499996426193023
u[2516580] = 0.11999998521222201
u[2936010] = 0.10500001951243966
u[3355440] = 0.08000007235141963
u[3774870] = 0.045000144025146564
u[4194300] = 2.3841839751250414e-7
case : diffusion
M  : 4194304
dx : 2.384186359449949e-7
dt : 0.1
eps: 1.0e-9
k=0: RMS U =0.04541927413192138
k=1: RMS U =0.02280637001002757
k=2: RMS U =0.011477009394214931
k=3: RMS U =0.00577614288030919
k=4: RMS U =0.0029070237990800447
k=5: RMS U =0.0014630504643036992
k=6: RMS U =0.000736325816658727
k=7: RMS U =0.0003705789524173863
k=8: RMS U =0.00018650542583187362
k=9: RMS U =9.386467751701585e-5
k=10: RMS U =4.724032904260682e-5
k=11: RMS U =2.3775170240154275e-5
k=12: RMS U =1.1965596603488471e-5
k=13: RMS U =6.0220599967910784e-6
k=14: RMS U =3.0307896925693147e-6
k=15: RMS U =1.5253395108420208e-6
k=16: RMS U =7.676747338788837e-7
k=17: RMS U =3.8635626374949263e-7
k=18: RMS U =1.9444585432654284e-7
k=19: RMS U =9.786094249936709e-8
k=20: RMS U =4.925157494958246e-8
k=21: RMS U =2.4787401652848974e-8
k=22: RMS U =1.2475028201778154e-8
k=23: RMS U =6.278447159441265e-9
k=24: RMS U =3.159821803619316e-9
k=25: RMS U =1.5902840669814343e-9
The simulation has converged in 26 iterations
|Bench| Time (s): 10.591254658
result samples:
u[0] = -1.1920951671438927e-7
u[419430] = 0.04499992482473523
u[838860] = 0.07999993543679544
u[1258290] = 0.10499994630079647
u[1677720] = 0.11999995391834647
u[2097150] = 0.12499996426193023
u[2516580] = 0.11999998521222201
u[2936010] = 0.10500001951243966
u[3355440] = 0.08000007235141963
u[3774870] = 0.045000144025146564
u[4194300] = 2.3841839751250414e-7
case : diffusion
M  : 4194304
dx : 2.384186359449949e-7
dt : 0.1
eps: 1.0e-9
k=0: RMS U =0.04541927413192138
k=1: RMS U =0.02280637001002757
k=2: RMS U =0.011477009394214931
k=3: RMS U =0.00577614288030919
k=4: RMS U =0.0029070237990800447
k=5: RMS U =0.0014630504643036992
k=6: RMS U =0.000736325816658727
k=7: RMS U =0.0003705789524173863
k=8: RMS U =0.00018650542583187362
k=9: RMS U =9.386467751701585e-5
k=10: RMS U =4.724032904260682e-5
k=11: RMS U =2.3775170240154275e-5
k=12: RMS U =1.1965596603488471e-5
k=13: RMS U =6.0220599967910784e-6
k=14: RMS U =3.0307896925693147e-6
k=15: RMS U =1.5253395108420208e-6
k=16: RMS U =7.676747338788837e-7
k=17: RMS U =3.8635626374949263e-7
k=18: RMS U =1.9444585432654284e-7
k=19: RMS U =9.786094249936709e-8
k=20: RMS U =4.925157494958246e-8
k=21: RMS U =2.4787401652848974e-8
k=22: RMS U =1.2475028201778154e-8
k=23: RMS U =6.278447159441265e-9
k=24: RMS U =3.159821803619316e-9
k=25: RMS U =1.5902840669814343e-9
The simulation has converged in 26 iterations
|Bench| Time (s): 10.345891294
result samples:
u[0] = -1.1920951671438927e-7
u[419430] = 0.04499992482473523
u[838860] = 0.07999993543679544
u[1258290] = 0.10499994630079647
u[1677720] = 0.11999995391834647
u[2097150] = 0.12499996426193023
u[2516580] = 0.11999998521222201
u[2936010] = 0.10500001951243966
u[3355440] = 0.08000007235141963
u[3774870] = 0.045000144025146564
u[4194300] = 2.3841839751250414e-7
case : diffusion
M  : 4194304
dx : 2.384186359449949e-7
dt : 0.1
eps: 1.0e-9
k=0: RMS U =0.04541927413192138
k=1: RMS U =0.02280637001002757
k=2: RMS U =0.011477009394214931
k=3: RMS U =0.00577614288030919
k=4: RMS U =0.0029070237990800447
k=5: RMS U =0.0014630504643036992
k=6: RMS U =0.000736325816658727
k=7: RMS U =0.0003705789524173863
k=8: RMS U =0.00018650542583187362
k=9: RMS U =9.386467751701585e-5
k=10: RMS U =4.724032904260682e-5
k=11: RMS U =2.3775170240154275e-5
k=12: RMS U =1.1965596603488471e-5
k=13: RMS U =6.0220599967910784e-6
k=14: RMS U =3.0307896925693147e-6
k=15: RMS U =1.5253395108420208e-6
k=16: RMS U =7.676747338788837e-7
k=17: RMS U =3.8635626374949263e-7
k=18: RMS U =1.9444585432654284e-7
k=19: RMS U =9.786094249936709e-8
k=20: RMS U =4.925157494958246e-8
k=21: RMS U =2.4787401652848974e-8
k=22: RMS U =1.2475028201778154e-8
k=23: RMS U =6.278447159441265e-9
k=24: RMS U =3.159821803619316e-9
k=25: RMS U =1.5902840669814343e-9
The simulation has converged in 26 iterations
|Bench| Time (s): 10.478535061
result samples:
u[0] = -1.1920951671438927e-7
u[419430] = 0.04499992482473523
u[838860] = 0.07999993543679544
u[1258290] = 0.10499994630079647
u[1677720] = 0.11999995391834647
u[2097150] = 0.12499996426193023
u[2516580] = 0.11999998521222201
u[2936010] = 0.10500001951243966
u[3355440] = 0.08000007235141963
u[3774870] = 0.045000144025146564
u[4194300] = 2.3841839751250414e-7
case : diffusion
M  : 4194304
dx : 2.384186359449949e-7
dt : 0.1
eps: 1.0e-9
k=0: RMS U =0.04541927413192138
k=1: RMS U =0.02280637001002757
k=2: RMS U =0.011477009394214931
k=3: RMS U =0.00577614288030919
k=4: RMS U =0.0029070237990800447
k=5: RMS U =0.0014630504643036992
k=6: RMS U =0.000736325816658727
k=7: RMS U =0.0003705789524173863
k=8: RMS U =0.00018650542583187362
k=9: RMS U =9.386467751701585e-5
k=10: RMS U =4.724032904260682e-5
k=11: RMS U =2.3775170240154275e-5
k=12: RMS U =1.1965596603488471e-5
k=13: RMS U =6.0220599967910784e-6
k=14: RMS U =3.0307896925693147e-6
k=15: RMS U =1.5253395108420208e-6
k=16: RMS U =7.676747338788837e-7
k=17: RMS U =3.8635626374949263e-7
k=18: RMS U =1.9444585432654284e-7
k=19: RMS U =9.786094249936709e-8
k=20: RMS U =4.925157494958246e-8
k=21: RMS U =2.4787401652848974e-8
k=22: RMS U =1.2475028201778154e-8
k=23: RMS U =6.278447159441265e-9
k=24: RMS U =3.159821803619316e-9
k=25: RMS U =1.5902840669814343e-9
The simulation has converged in 26 iterations
|Bench| Time (s): 10.060087776
result samples:
u[0] = -1.1920951671438927e-7
u[419430] = 0.04499992482473523
u[838860] = 0.07999993543679544
u[1258290] = 0.10499994630079647
u[1677720] = 0.11999995391834647
u[2097150] = 0.12499996426193023
u[2516580] = 0.11999998521222201
u[2936010] = 0.10500001951243966
u[3355440] = 0.08000007235141963
u[3774870] = 0.045000144025146564
u[4194300] = 2.3841839751250414e-7
case : diffusion
M  : 4194304
dx : 2.384186359449949e-7
dt : 0.1
eps: 1.0e-9
k=0: RMS U =0.04541927413192138
k=1: RMS U =0.02280637001002757
k=2: RMS U =0.011477009394214931
k=3: RMS U =0.00577614288030919
k=4: RMS U =0.0029070237990800447
k=5: RMS U =0.0014630504643036992
k=6: RMS U =0.000736325816658727
k=7: RMS U =0.0003705789524173863
k=8: RMS U =0.00018650542583187362
k=9: RMS U =9.386467751701585e-5
k=10: RMS U =4.724032904260682e-5
k=11: RMS U =2.3775170240154275e-5
k=12: RMS U =1.1965596603488471e-5
k=13: RMS U =6.0220599967910784e-6
k=14: RMS U =3.0307896925693147e-6
k=15: RMS U =1.5253395108420208e-6
k=16: RMS U =7.676747338788837e-7
k=17: RMS U =3.8635626374949263e-7
k=18: RMS U =1.9444585432654284e-7
k=19: RMS U =9.786094249936709e-8
k=20: RMS U =4.925157494958246e-8
k=21: RMS U =2.4787401652848974e-8
k=22: RMS U =1.2475028201778154e-8
k=23: RMS U =6.278447159441265e-9
k=24: RMS U =3.159821803619316e-9
k=25: RMS U =1.5902840669814343e-9
The simulation has converged in 26 iterations
|Bench| Time (s): 9.469517319
result samples:
u[0] = -1.1920951671438927e-7
u[419430] = 0.04499992482473523
u[838860] = 0.07999993543679544
u[1258290] = 0.10499994630079647
u[1677720] = 0.11999995391834647
u[2097150] = 0.12499996426193023
u[2516580] = 0.11999998521222201
u[2936010] = 0.10500001951243966
u[3355440] = 0.08000007235141963
u[3774870] = 0.045000144025146564
u[4194300] = 2.3841839751250414e-7
case : diffusion
M  : 4194304
dx : 2.384186359449949e-7
dt : 0.1
eps: 1.0e-9
k=0: RMS U =0.04541927413192138
k=1: RMS U =0.02280637001002757
k=2: RMS U =0.011477009394214931
k=3: RMS U =0.00577614288030919
k=4: RMS U =0.0029070237990800447
k=5: RMS U =0.0014630504643036992
k=6: RMS U =0.000736325816658727
k=7: RMS U =0.0003705789524173863
k=8: RMS U =0.00018650542583187362
k=9: RMS U =9.386467751701585e-5
k=10: RMS U =4.724032904260682e-5
k=11: RMS U =2.3775170240154275e-5
k=12: RMS U =1.1965596603488471e-5
k=13: RMS U =6.0220599967910784e-6
k=14: RMS U =3.0307896925693147e-6
k=15: RMS U =1.5253395108420208e-6
k=16: RMS U =7.676747338788837e-7
k=17: RMS U =3.8635626374949263e-7
k=18: RMS U =1.9444585432654284e-7
k=19: RMS U =9.786094249936709e-8
k=20: RMS U =4.925157494958246e-8
k=21: RMS U =2.4787401652848974e-8
k=22: RMS U =1.2475028201778154e-8
k=23: RMS U =6.278447159441265e-9
k=24: RMS U =3.159821803619316e-9
k=25: RMS U =1.5902840669814343e-9
The simulation has converged in 26 iterations
|Bench| Time (s): 9.279535269
result samples:
u[0] = -1.1920951671438927e-7
u[419430] = 0.04499992482473523
u[838860] = 0.07999993543679544
u[1258290] = 0.10499994630079647
u[1677720] = 0.11999995391834647
u[2097150] = 0.12499996426193023
u[2516580] = 0.11999998521222201
u[2936010] = 0.10500001951243966
u[3355440] = 0.08000007235141963
u[3774870] = 0.045000144025146564
u[4194300] = 2.3841839751250414e-7
|Bench| BENCHMARK Stop: 1641509682

